Procesador/procesador_TB.vcd
$date
	Sun Nov 24 00:49:09 2024
$end
$version
	Icarus Verilog
$end
$timescale
	1ps
$end
$scope module procesador_TB $end
$var parameter 32 ! DURATION $end
$var reg 1 " clk_test $end
$var reg 1 # reset_test $end
$var integer 32 $ i [31:0] $end
$scope module procesador_UUT $end
$var wire 1 " clk $end
$var wire 1 # reset $end
$var wire 1 % zero $end
$var wire 32 & wd [31:0] $end
$var wire 2 ' resultSrc [1:0] $end
$var wire 1 ( regWrite $end
$var wire 1 ) pcSrc $end
$var wire 7 * op [6:0] $end
$var wire 1 + memWrite $end
$var wire 2 , immSrc [1:0] $end
$var wire 7 - f7 [6:0] $end
$var wire 3 . f3 [2:0] $end
$var wire 32 / dm_Result [31:0] $end
$var wire 1 0 aluSrc $end
$var wire 3 1 aluControl [2:0] $end
$var wire 5 2 addressDM [4:0] $end
$scope module DM_inst $end
$var wire 1 " clk $end
$var wire 32 3 rd [31:0] $end
$var wire 1 + we $end
$var wire 32 4 wd [31:0] $end
$var wire 5 5 addressDM [4:0] $end
$var reg 32 6 rdaux [31:0] $end
$upscope $end
$scope module UC_inst $end
$var wire 1 ) pcSrc $end
$var wire 1 % zero $end
$var wire 2 7 resultSrc [1:0] $end
$var wire 1 ( regWrite $end
$var wire 7 8 op [6:0] $end
$var wire 1 + memWrite $end
$var wire 1 9 jump $end
$var wire 2 : immSrc [1:0] $end
$var wire 7 ; f7 [6:0] $end
$var wire 3 < f3 [2:0] $end
$var wire 1 = branch $end
$var wire 1 0 aluSrc $end
$var wire 2 > aluOp [1:0] $end
$var wire 3 ? aluControl [2:0] $end
$scope module alu_deco_inst $end
$var wire 3 @ aluControl [2:0] $end
$var wire 7 A op [6:0] $end
$var wire 7 B f7 [6:0] $end
$var wire 3 C f3 [2:0] $end
$var wire 2 D aluOp [1:0] $end
$var reg 3 E aluControlAux [2:0] $end
$upscope $end
$scope module m_deco_inst $end
$var wire 2 F aluOp [1:0] $end
$var wire 1 0 aluSrc $end
$var wire 2 G immSrc [1:0] $end
$var wire 1 + memWrite $end
$var wire 1 ( regWrite $end
$var wire 2 H resSrc [1:0] $end
$var wire 7 I op [6:0] $end
$var wire 1 9 jump $end
$var wire 1 = branch $end
$var reg 2 J aluOpAux [1:0] $end
$var reg 1 K aluSrcAux $end
$var reg 1 = branchAux $end
$var reg 2 L immSrcAux [1:0] $end
$var reg 1 9 jumpAux $end
$var reg 1 M memWriteAux $end
$var reg 1 N regWriteAux $end
$var reg 2 O resSrcAux [1:0] $end
$upscope $end
$upscope $end
$scope module datapath_inst $end
$var wire 3 P aluControl [2:0] $end
$var wire 1 0 aluSrc $end
$var wire 1 " clk $end
$var wire 32 Q dm_Result [31:0] $end
$var wire 2 R immSrc [1:0] $end
$var wire 1 ) pcSrc $end
$var wire 1 ( regWrite $end
$var wire 1 # reset $end
$var wire 2 S resultSrc [1:0] $end
$var wire 32 T wd [31:0] $end
$var wire 1 % zero $end
$var wire 32 U wd3 [31:0] $end
$var wire 32 V srcB [31:0] $end
$var wire 32 W rd2 [31:0] $end
$var wire 32 X rd1 [31:0] $end
$var wire 32 Y pcPlusImm [31:0] $end
$var wire 32 Z pcPlus4 [31:0] $end
$var wire 32 [ pcNext [31:0] $end
$var wire 32 \ pc [31:0] $end
$var wire 7 ] op [6:0] $end
$var wire 32 ^ instruction [31:0] $end
$var wire 32 _ immExt [31:0] $end
$var wire 7 ` f7 [6:0] $end
$var wire 3 a f3 [2:0] $end
$var wire 5 b addressDM [4:0] $end
$var wire 5 c a3 [4:0] $end
$var wire 5 d a2 [4:0] $end
$var wire 5 e a1 [4:0] $end
$var wire 32 f AluResult [31:0] $end
$scope module ALU_sum_4b_inst $end
$var wire 32 g src [31:0] $end
$var reg 32 h res [31:0] $end
$var reg 32 i res0 [31:0] $end
$upscope $end
$scope module ALU_sum_inst $end
$var wire 32 j res [31:0] $end
$var wire 32 k srcB [31:0] $end
$var wire 32 l srcA [31:0] $end
$var reg 32 m res0 [31:0] $end
$upscope $end
$scope module BR_inst $end
$var wire 5 n a1 [4:0] $end
$var wire 5 o a2 [4:0] $end
$var wire 5 p a3 [4:0] $end
$var wire 1 " clk $end
$var wire 32 q rd1 [31:0] $end
$var wire 32 r rd2 [31:0] $end
$var wire 1 ( regWrite $end
$var wire 32 s wd3 [31:0] $end
$upscope $end
$scope module PC_inst $end
$var wire 1 " clk $end
$var wire 1 # reset $end
$var wire 32 t pcNext [31:0] $end
$var reg 32 u pc [31:0] $end
$upscope $end
$scope module alu_inst $end
$var wire 3 v ALUControl [2:0] $end
$var wire 32 w srcA [31:0] $end
$var wire 1 % zero $end
$var wire 32 x srcB [31:0] $end
$var wire 32 y resta [31:0] $end
$var reg 32 z res [31:0] $end
$var reg 32 { res0 [31:0] $end
$upscope $end
$scope module mem_instr_inst $end
$var wire 5 | address [4:0] $end
$var reg 32 } rd [31:0] $end
$upscope $end
$scope module mp_2x1_inst0 $end
$var wire 32 ~ i1 [31:0] $end
$var wire 32 !" i2 [31:0] $end
$var wire 32 "" out [31:0] $end
$var wire 1 ) sel $end
$var reg 32 #" aux [31:0] $end
$upscope $end
$scope module mp_2x1_inst1 $end
$var wire 32 $" i1 [31:0] $end
$var wire 32 %" out [31:0] $end
$var wire 1 0 sel $end
$var wire 32 &" i2 [31:0] $end
$var reg 32 '" aux [31:0] $end
$upscope $end
$scope module mp_3x1_inst0 $end
$var wire 32 (" i1 [31:0] $end
$var wire 32 )" i2 [31:0] $end
$var wire 32 *" i3 [31:0] $end
$var wire 32 +" out [31:0] $end
$var wire 2 ," sel [1:0] $end
$var reg 32 -" aux [31:0] $end
$upscope $end
$scope module sign_ext_inst $end
$var wire 25 ." inm [24:0] $end
$var wire 2 /" src [1:0] $end
$var reg 32 0" inmExt [31:0] $end
$upscope $end
$upscope $end
$upscope $end
$upscope $end
$scope module procesador_TB $end
$scope module procesador_UUT $end
$scope module DM_inst $end
$var reg 32 1" \MEM[0] [31:0] $end
$upscope $end
$upscope $end
$upscope $end
$scope module procesador_TB $end
$scope module procesador_UUT $end
$scope module DM_inst $end
$var reg 32 2" \MEM[1] [31:0] $end
$upscope $end
$upscope $end
$upscope $end
$scope module procesador_TB $end
$scope module procesador_UUT $end
$scope module DM_inst $end
$var reg 32 3" \MEM[2] [31:0] $end
$upscope $end
$upscope $end
$upscope $end
$scope module procesador_TB $end
$scope module procesador_UUT $end
$scope module DM_inst $end
$var reg 32 4" \MEM[3] [31:0] $end
$upscope $end
$upscope $end
$upscope $end
$scope module procesador_TB $end
$scope module procesador_UUT $end
$scope module DM_inst $end
$var reg 32 5" \MEM[4] [31:0] $end
$upscope $end
$upscope $end
$upscope $end
$scope module procesador_TB $end
$scope module procesador_UUT $end
$scope module DM_inst $end
$var reg 32 6" \MEM[5] [31:0] $end
$upscope $end
$upscope $end
$upscope $end
$scope module procesador_TB $end
$scope module procesador_UUT $end
$scope module DM_inst $end
$var reg 32 7" \MEM[6] [31:0] $end
$upscope $end
$upscope $end
$upscope $end
$scope module procesador_TB $end
$scope module procesador_UUT $end
$scope module DM_inst $end
$var reg 32 8" \MEM[7] [31:0] $end
$upscope $end
$upscope $end
$upscope $end
$scope module procesador_TB $end
$scope module procesador_UUT $end
$scope module DM_inst $end
$var reg 32 9" \MEM[8] [31:0] $end
$upscope $end
$upscope $end
$upscope $end
$scope module procesador_TB $end
$scope module procesador_UUT $end
$scope module DM_inst $end
$var reg 32 :" \MEM[9] [31:0] $end
$upscope $end
$upscope $end
$upscope $end
$scope module procesador_TB $end
$scope module procesador_UUT $end
$scope module DM_inst $end
$var reg 32 ;" \MEM[10] [31:0] $end
$upscope $end
$upscope $end
$upscope $end
$scope module procesador_TB $end
$scope module procesador_UUT $end
$scope module DM_inst $end
$var reg 32 <" \MEM[11] [31:0] $end
$upscope $end
$upscope $end
$upscope $end
$scope module procesador_TB $end
$scope module procesador_UUT $end
$scope module DM_inst $end
$var reg 32 =" \MEM[12] [31:0] $end
$upscope $end
$upscope $end
$upscope $end
$scope module procesador_TB $end
$scope module procesador_UUT $end
$scope module DM_inst $end
$var reg 32 >" \MEM[13] [31:0] $end
$upscope $end
$upscope $end
$upscope $end
$scope module procesador_TB $end
$scope module procesador_UUT $end
$scope module DM_inst $end
$var reg 32 ?" \MEM[14] [31:0] $end
$upscope $end
$upscope $end
$upscope $end
$scope module procesador_TB $end
$scope module procesador_UUT $end
$scope module DM_inst $end
$var reg 32 @" \MEM[15] [31:0] $end
$upscope $end
$upscope $end
$upscope $end
$scope module procesador_TB $end
$scope module procesador_UUT $end
$scope module DM_inst $end
$var reg 32 A" \MEM[16] [31:0] $end
$upscope $end
$upscope $end
$upscope $end
$scope module procesador_TB $end
$scope module procesador_UUT $end
$scope module DM_inst $end
$var reg 32 B" \MEM[17] [31:0] $end
$upscope $end
$upscope $end
$upscope $end
$scope module procesador_TB $end
$scope module procesador_UUT $end
$scope module DM_inst $end
$var reg 32 C" \MEM[18] [31:0] $end
$upscope $end
$upscope $end
$upscope $end
$scope module procesador_TB $end
$scope module procesador_UUT $end
$scope module DM_inst $end
$var reg 32 D" \MEM[19] [31:0] $end
$upscope $end
$upscope $end
$upscope $end
$scope module procesador_TB $end
$scope module procesador_UUT $end
$scope module DM_inst $end
$var reg 32 E" \MEM[20] [31:0] $end
$upscope $end
$upscope $end
$upscope $end
$scope module procesador_TB $end
$scope module procesador_UUT $end
$scope module DM_inst $end
$var reg 32 F" \MEM[21] [31:0] $end
$upscope $end
$upscope $end
$upscope $end
$scope module procesador_TB $end
$scope module procesador_UUT $end
$scope module DM_inst $end
$var reg 32 G" \MEM[22] [31:0] $end
$upscope $end
$upscope $end
$upscope $end
$scope module procesador_TB $end
$scope module procesador_UUT $end
$scope module DM_inst $end
$var reg 32 H" \MEM[23] [31:0] $end
$upscope $end
$upscope $end
$upscope $end
$scope module procesador_TB $end
$scope module procesador_UUT $end
$scope module DM_inst $end
$var reg 32 I" \MEM[24] [31:0] $end
$upscope $end
$upscope $end
$upscope $end
$scope module procesador_TB $end
$scope module procesador_UUT $end
$scope module DM_inst $end
$var reg 32 J" \MEM[25] [31:0] $end
$upscope $end
$upscope $end
$upscope $end
$scope module procesador_TB $end
$scope module procesador_UUT $end
$scope module DM_inst $end
$var reg 32 K" \MEM[26] [31:0] $end
$upscope $end
$upscope $end
$upscope $end
$scope module procesador_TB $end
$scope module procesador_UUT $end
$scope module DM_inst $end
$var reg 32 L" \MEM[27] [31:0] $end
$upscope $end
$upscope $end
$upscope $end
$scope module procesador_TB $end
$scope module procesador_UUT $end
$scope module DM_inst $end
$var reg 32 M" \MEM[28] [31:0] $end
$upscope $end
$upscope $end
$upscope $end
$scope module procesador_TB $end
$scope module procesador_UUT $end
$scope module DM_inst $end
$var reg 32 N" \MEM[29] [31:0] $end
$upscope $end
$upscope $end
$upscope $end
$scope module procesador_TB $end
$scope module procesador_UUT $end
$scope module DM_inst $end
$var reg 32 O" \MEM[30] [31:0] $end
$upscope $end
$upscope $end
$upscope $end
$scope module procesador_TB $end
$scope module procesador_UUT $end
$scope module DM_inst $end
$var reg 32 P" \MEM[31] [31:0] $end
$upscope $end
$upscope $end
$upscope $end
$scope module procesador_TB $end
$scope module procesador_UUT $end
$scope module datapath_inst $end
$scope module BR_inst $end
$var reg 32 Q" \BankReg[0] [31:0] $end
$upscope $end
$upscope $end
$upscope $end
$upscope $end
$scope module procesador_TB $end
$scope module procesador_UUT $end
$scope module datapath_inst $end
$scope module BR_inst $end
$var reg 32 R" \BankReg[1] [31:0] $end
$upscope $end
$upscope $end
$upscope $end
$upscope $end
$scope module procesador_TB $end
$scope module procesador_UUT $end
$scope module datapath_inst $end
$scope module BR_inst $end
$var reg 32 S" \BankReg[2] [31:0] $end
$upscope $end
$upscope $end
$upscope $end
$upscope $end
$scope module procesador_TB $end
$scope module procesador_UUT $end
$scope module datapath_inst $end
$scope module BR_inst $end
$var reg 32 T" \BankReg[3] [31:0] $end
$upscope $end
$upscope $end
$upscope $end
$upscope $end
$scope module procesador_TB $end
$scope module procesador_UUT $end
$scope module datapath_inst $end
$scope module BR_inst $end
$var reg 32 U" \BankReg[4] [31:0] $end
$upscope $end
$upscope $end
$upscope $end
$upscope $end
$scope module procesador_TB $end
$scope module procesador_UUT $end
$scope module datapath_inst $end
$scope module BR_inst $end
$var reg 32 V" \BankReg[5] [31:0] $end
$upscope $end
$upscope $end
$upscope $end
$upscope $end
$scope module procesador_TB $end
$scope module procesador_UUT $end
$scope module datapath_inst $end
$scope module BR_inst $end
$var reg 32 W" \BankReg[6] [31:0] $end
$upscope $end
$upscope $end
$upscope $end
$upscope $end
$scope module procesador_TB $end
$scope module procesador_UUT $end
$scope module datapath_inst $end
$scope module BR_inst $end
$var reg 32 X" \BankReg[7] [31:0] $end
$upscope $end
$upscope $end
$upscope $end
$upscope $end
$scope module procesador_TB $end
$scope module procesador_UUT $end
$scope module datapath_inst $end
$scope module BR_inst $end
$var reg 32 Y" \BankReg[8] [31:0] $end
$upscope $end
$upscope $end
$upscope $end
$upscope $end
$scope module procesador_TB $end
$scope module procesador_UUT $end
$scope module datapath_inst $end
$scope module BR_inst $end
$var reg 32 Z" \BankReg[9] [31:0] $end
$upscope $end
$upscope $end
$upscope $end
$upscope $end
$scope module procesador_TB $end
$scope module procesador_UUT $end
$scope module datapath_inst $end
$scope module BR_inst $end
$var reg 32 [" \BankReg[10] [31:0] $end
$upscope $end
$upscope $end
$upscope $end
$upscope $end
$scope module procesador_TB $end
$scope module procesador_UUT $end
$scope module datapath_inst $end
$scope module BR_inst $end
$var reg 32 \" \BankReg[11] [31:0] $end
$upscope $end
$upscope $end
$upscope $end
$upscope $end
$scope module procesador_TB $end
$scope module procesador_UUT $end
$scope module datapath_inst $end
$scope module BR_inst $end
$var reg 32 ]" \BankReg[12] [31:0] $end
$upscope $end
$upscope $end
$upscope $end
$upscope $end
$scope module procesador_TB $end
$scope module procesador_UUT $end
$scope module datapath_inst $end
$scope module BR_inst $end
$var reg 32 ^" \BankReg[13] [31:0] $end
$upscope $end
$upscope $end
$upscope $end
$upscope $end
$scope module procesador_TB $end
$scope module procesador_UUT $end
$scope module datapath_inst $end
$scope module BR_inst $end
$var reg 32 _" \BankReg[14] [31:0] $end
$upscope $end
$upscope $end
$upscope $end
$upscope $end
$scope module procesador_TB $end
$scope module procesador_UUT $end
$scope module datapath_inst $end
$scope module BR_inst $end
$var reg 32 `" \BankReg[15] [31:0] $end
$upscope $end
$upscope $end
$upscope $end
$upscope $end
$scope module procesador_TB $end
$scope module procesador_UUT $end
$scope module datapath_inst $end
$scope module BR_inst $end
$var reg 32 a" \BankReg[16] [31:0] $end
$upscope $end
$upscope $end
$upscope $end
$upscope $end
$scope module procesador_TB $end
$scope module procesador_UUT $end
$scope module datapath_inst $end
$scope module BR_inst $end
$var reg 32 b" \BankReg[17] [31:0] $end
$upscope $end
$upscope $end
$upscope $end
$upscope $end
$scope module procesador_TB $end
$scope module procesador_UUT $end
$scope module datapath_inst $end
$scope module BR_inst $end
$var reg 32 c" \BankReg[18] [31:0] $end
$upscope $end
$upscope $end
$upscope $end
$upscope $end
$scope module procesador_TB $end
$scope module procesador_UUT $end
$scope module datapath_inst $end
$scope module BR_inst $end
$var reg 32 d" \BankReg[19] [31:0] $end
$upscope $end
$upscope $end
$upscope $end
$upscope $end
$scope module procesador_TB $end
$scope module procesador_UUT $end
$scope module datapath_inst $end
$scope module BR_inst $end
$var reg 32 e" \BankReg[20] [31:0] $end
$upscope $end
$upscope $end
$upscope $end
$upscope $end
$scope module procesador_TB $end
$scope module procesador_UUT $end
$scope module datapath_inst $end
$scope module BR_inst $end
$var reg 32 f" \BankReg[21] [31:0] $end
$upscope $end
$upscope $end
$upscope $end
$upscope $end
$scope module procesador_TB $end
$scope module procesador_UUT $end
$scope module datapath_inst $end
$scope module BR_inst $end
$var reg 32 g" \BankReg[22] [31:0] $end
$upscope $end
$upscope $end
$upscope $end
$upscope $end
$scope module procesador_TB $end
$scope module procesador_UUT $end
$scope module datapath_inst $end
$scope module BR_inst $end
$var reg 32 h" \BankReg[23] [31:0] $end
$upscope $end
$upscope $end
$upscope $end
$upscope $end
$scope module procesador_TB $end
$scope module procesador_UUT $end
$scope module datapath_inst $end
$scope module BR_inst $end
$var reg 32 i" \BankReg[24] [31:0] $end
$upscope $end
$upscope $end
$upscope $end
$upscope $end
$scope module procesador_TB $end
$scope module procesador_UUT $end
$scope module datapath_inst $end
$scope module BR_inst $end
$var reg 32 j" \BankReg[25] [31:0] $end
$upscope $end
$upscope $end
$upscope $end
$upscope $end
$scope module procesador_TB $end
$scope module procesador_UUT $end
$scope module datapath_inst $end
$scope module BR_inst $end
$var reg 32 k" \BankReg[26] [31:0] $end
$upscope $end
$upscope $end
$upscope $end
$upscope $end
$scope module procesador_TB $end
$scope module procesador_UUT $end
$scope module datapath_inst $end
$scope module BR_inst $end
$var reg 32 l" \BankReg[27] [31:0] $end
$upscope $end
$upscope $end
$upscope $end
$upscope $end
$scope module procesador_TB $end
$scope module procesador_UUT $end
$scope module datapath_inst $end
$scope module BR_inst $end
$var reg 32 m" \BankReg[28] [31:0] $end
$upscope $end
$upscope $end
$upscope $end
$upscope $end
$scope module procesador_TB $end
$scope module procesador_UUT $end
$scope module datapath_inst $end
$scope module BR_inst $end
$var reg 32 n" \BankReg[29] [31:0] $end
$upscope $end
$upscope $end
$upscope $end
$upscope $end
$scope module procesador_TB $end
$scope module procesador_UUT $end
$scope module datapath_inst $end
$scope module BR_inst $end
$var reg 32 o" \BankReg[30] [31:0] $end
$upscope $end
$upscope $end
$upscope $end
$upscope $end
$scope module procesador_TB $end
$scope module procesador_UUT $end
$scope module datapath_inst $end
$scope module BR_inst $end
$var reg 32 p" \BankReg[31] [31:0] $end
$upscope $end
$upscope $end
$upscope $end
$upscope $end
$enddefinitions $end
$comment Show the parameter values. $end
$dumpall
b11111010 !
$end
#0
$dumpvars
b0 p"
b0 o"
b0 n"
b0 m"
b0 l"
b0 k"
b0 j"
b0 i"
b0 h"
b0 g"
b0 f"
b0 e"
b0 d"
b0 c"
b0 b"
b0 a"
b0 `"
b0 _"
b0 ^"
b0 ]"
b0 \"
b0 ["
b0 Z"
b0 Y"
b0 X"
b0 W"
b0 V"
b0 U"
b0 T"
b0 S"
b0 R"
b0 Q"
bx P"
bx O"
bx N"
bx M"
bx L"
bx K"
bx J"
bx I"
bx H"
bx G"
bx F"
bx E"
bx D"
bx C"
bx B"
bx A"
bx @"
bx ?"
bx >"
bx ="
bx <"
bx ;"
bx :"
bx 9"
bx 8"
bx 7"
bx 6"
bx 5"
bx 4"
bx 3"
bx 2"
bx 1"
b11 0"
b0 /"
b110000000001000 ."
b11 -"
b0 ,"
b11 +"
b100 *"
bx )"
b11 ("
b11 '"
b11 &"
b11 %"
b0 $"
b100 #"
b100 ""
b11 !"
b100 ~
b1100000000010000010011 }
b0 |
b11 {
b11 z
b11111111111111111111111111111101 y
b11 x
b0 w
b0 v
b0 u
b100 t
b11 s
b0 r
b0 q
b1000 p
b11 o
b0 n
b11 m
b0 l
b11 k
b11 j
b100 i
b100 h
b0 g
b11 f
b0 e
b11 d
b1000 c
b0 b
b0 a
b0 `
b11 _
b1100000000010000010011 ^
b10011 ]
b0 \
b100 [
b100 Z
b11 Y
b0 X
b0 W
b11 V
b11 U
b0 T
b0 S
b0 R
bx Q
b0 P
b0 O
1N
0M
b0 L
1K
b10 J
b10011 I
b0 H
b0 G
b10 F
b0 E
b10 D
b0 C
b0 B
b10011 A
b0 @
b0 ?
b10 >
0=
b0 <
b0 ;
b0 :
09
b10011 8
b0 7
bx 6
b0 5
b0 4
bx 3
b0 2
b0 1
10
bx /
b0 .
b0 -
b0 ,
0+
b10011 *
0)
1(
b0 '
b0 &
0%
b100000 $
1#
1"
$end
#100000
0"
#200000
b1000 [
b1000 t
b1000 ""
b1000 #"
b1 U
b1 s
b1 +"
b1 -"
b1 f
b1 z
b1 ("
b1000 Z
b1000 h
b1000 ~
b1000 *"
b1 {
b11111111111111111111111111111111 y
b1 V
b1 x
b1 %"
b1 '"
b1 _
b1 k
b1 &"
b1 0"
b10000000001001 ."
b1001 c
b1001 p
b1 d
b1 o
b100000000010010010011 ^
b100000000010010010011 }
b1 |
b1000 i
b101 Y
b101 j
b101 !"
b101 m
b11 Y"
b100 \
b100 g
b100 l
b100 u
1"
0#
#300000
0"
#400000
b100 2
b100 5
b100 b
b1100 [
b1100 t
b1100 ""
b1100 #"
b10000 U
b10000 s
b10000 +"
b10000 -"
b10000 f
b10000 z
b10000 ("
b1100 Z
b1100 h
b1100 ~
b1100 *"
b10000 {
b11111111111111111111111111110000 y
b10000 V
b10000 x
b10000 %"
b10000 '"
b10000 _
b10000 k
b10000 &"
b10000 0"
b100000000000010010 ."
b10010 c
b10010 p
b10000 d
b10000 o
b1000000000000100100010011 ^
b1000000000000100100010011 }
b10 |
b1100 i
b11000 Y
b11000 j
b11000 !"
b11000 m
b1 Z"
b1000 \
b1000 g
b1000 l
b1000 u
1"
#500000
0"
#600000
b0 2
b0 5
b0 b
b10000 [
b10000 t
b10000 ""
b10000 #"
b1 U
b1 s
b1 +"
b1 -"
b1 f
b1 z
b1 ("
b10000 Z
b10000 h
b10000 ~
b10000 *"
b1 V
b1 x
b1 %"
b1 '"
b1001 _
b1001 k
b1001 &"
b1001 0"
00
0K
b11 1
b11 ?
b11 @
b11 P
b11 v
b11 E
b1 {
b10010100011000101 ."
b110011 *
b110011 8
b110011 A
b110011 I
b110011 ]
b110 .
b110 <
b110 C
b110 a
b101 c
b101 p
b1 &
b1 4
b1 T
b1 W
b1 r
b1 $"
b1001 d
b1001 o
b10 y
b11 X
b11 q
b11 w
b1000 e
b1000 n
b100101000110001010110011 ^
b100101000110001010110011 }
b11 |
b10000 i
b10101 Y
b10101 j
b10101 !"
b10101 m
b10000 c"
b1100 \
b1100 g
b1100 l
b1100 u
1"
#700000
0"
#800000
b10100 [
b10100 t
b10100 ""
b10100 #"
b10100 Z
b10100 h
b10100 ~
b10100 *"
b10 1
b10 ?
b10 @
b10 P
b10 v
b10 E
b10010100011100110 ."
b111 .
b111 <
b111 C
b111 a
b110 c
b110 p
b100101000111001100110011 ^
b100101000111001100110011 }
b100 |
b10100 i
b11001 Y
b11001 j
b11001 !"
b11001 m
b1 V"
b10000 \
b10000 g
b10000 l
b10000 u
1"
#900000
0"
#1000000
b1 2
b1 5
b1 b
b11000 [
b11000 t
b11000 ""
b11000 #"
b100 U
b100 s
b100 +"
b100 -"
b100 f
b100 z
b100 ("
b11000 Z
b11000 h
b11000 ~
b11000 *"
b100 {
b0 1
b0 ?
b0 @
b0 P
b0 v
b0 E
b10010100000000111 ."
b0 .
b0 <
b0 C
b0 a
b111 c
b111 p
b100101000000001110110011 ^
b100101000000001110110011 }
b101 |
b11000 i
b11101 Y
b11101 j
b11101 !"
b11101 m
b1 W"
b10100 \
b10100 g
b10100 l
b10100 u
1"
#1100000
0"
#1200000
b0 2
b0 5
b0 b
b11100 [
b11100 t
b11100 ""
b11100 #"
b10 U
b10 s
b10 +"
b10 -"
b10 f
b10 z
b10 ("
b11100 Z
b11100 h
b11100 ~
b11100 *"
b10 {
b10000001001 _
b10000001001 k
b10000001001 &"
b10000001001 0"
b1 1
b1 ?
b1 @
b1 P
b1 v
b1 E
b100000010010100000011100 ."
b100000 -
b100000 ;
b100000 B
b100000 `
b11100 c
b11100 p
b1000000100101000000111000110011 ^
b1000000100101000000111000110011 }
b110 |
b11100 i
b10000100001 Y
b10000100001 j
b10000100001 !"
b10000100001 m
b100 X"
b11000 \
b11000 g
b11000 l
b11000 u
1"
#1300000
0"
#1400000
b11111 2
b11111 5
b11111 b
b100000 [
b100000 t
b100000 ""
b100000 #"
b11111111111111111111111111111110 U
b11111111111111111111111111111110 s
b11111111111111111111111111111110 +"
b11111111111111111111111111111110 -"
b11111111111111111111111111111110 f
b11111111111111111111111111111110 z
b11111111111111111111111111111110 ("
b100000 Z
b100000 h
b100000 ~
b100000 *"
0%
b10000001000 _
b10000001000 k
b10000001000 &"
b10000001000 0"
b11 V
b11 x
b11 %"
b11 '"
b11111111111111111111111111111110 {
b100000010000100100011101 ."
b11101 c
b11101 p
b11 &
b11 4
b11 T
b11 W
b11 r
b11 $"
b1000 d
b1000 o
b11111111111111111111111111111110 y
b1 X
b1 q
b1 w
b1001 e
b1001 n
b1000000100001001000111010110011 ^
b1000000100001001000111010110011 }
b111 |
b100000 i
b10000100100 Y
b10000100100 j
b10000100100 !"
b10000100100 m
b10 m"
b11100 \
b11100 g
b11100 l
b11100 u
1"
#1500000
0"
#1600000
b0 2
b0 5
b0 b
b100100 [
b100100 t
b100100 ""
b100100 #"
b0 U
b0 s
b0 +"
b0 -"
b0 f
b0 z
b0 ("
b100100 Z
b100100 h
b100100 ~
b100100 *"
1%
b1001 _
b1001 k
b1001 &"
b1001 0"
b101 1
b101 ?
b101 @
b101 P
b101 v
b101 E
b1 V
b1 x
b1 %"
b1 '"
b0 {
b10010100001011110 ."
b10 .
b10 <
b10 C
b10 a
b0 -
b0 ;
b0 B
b0 `
b11110 c
b11110 p
b1 &
b1 4
b1 T
b1 W
b1 r
b1 $"
b1001 d
b1001 o
b10 y
b11 X
b11 q
b11 w
b1000 e
b1000 n
b100101000010111100110011 ^
b100101000010111100110011 }
b1000 |
b100100 i
b101001 Y
b101001 j
b101001 !"
b101001 m
b11111111111111111111111111111110 n"
b100000 \
b100000 g
b100000 l
b100000 u
1"
#1700000
0"
#1800000
b101000 [
b101000 t
b101000 ""
b101000 #"
b1 U
b1 s
b1 +"
b1 -"
b1 f
b1 z
b1 ("
b101000 Z
b101000 h
b101000 ~
b101000 *"
0%
b1 {
b1000 _
b1000 k
b1000 &"
b1000 0"
b11 V
b11 x
b11 %"
b11 '"
b10000100101011111 ."
b11111 c
b11111 p
b11 &
b11 4
b11 T
b11 W
b11 r
b11 $"
b1000 d
b1000 o
b11111111111111111111111111111110 y
b1 X
b1 q
b1 w
b1001 e
b1001 n
b100001001010111110110011 ^
b100001001010111110110011 }
b1001 |
b101000 i
b101100 Y
b101100 j
b101100 !"
b101100 m
b0 o"
b100100 \
b100100 g
b100100 l
b100100 u
1"
#1900000
0"
#2000000
b101100 [
b101100 t
b101100 ""
b101100 #"
b0 U
b0 s
b0 +"
b0 -"
b0 f
b0 z
b0 ("
b101100 Z
b101100 h
b101100 ~
b101100 *"
1%
b0 {
b11101 _
b11101 k
b11101 &"
b11101 0"
b11 y
b11111111111111111111111111111110 V
b11111111111111111111111111111110 x
b11111111111111111111111111111110 %"
b11111111111111111111111111111110 '"
b111010100101011111 ."
b11111111111111111111111111111110 &
b11111111111111111111111111111110 4
b11111111111111111111111111111110 T
b11111111111111111111111111111110 W
b11111111111111111111111111111110 r
b11111111111111111111111111111110 $"
b11101 d
b11101 o
b1110101001010111110110011 ^
b1110101001010111110110011 }
b1010 |
b101100 i
b1000101 Y
b1000101 j
b1000101 !"
b1000101 m
b1 p"
b101000 \
b101000 g
b101000 l
b101000 u
1"
#2100000
0"
#2200000
b110000 [
b110000 t
b110000 ""
b110000 #"
b1 U
b1 s
b1 +"
b1 -"
b1 f
b1 z
b1 ("
b110000 Z
b110000 h
b110000 ~
b110000 *"
0%
b1 {
b1 _
b1 k
b1 &"
b1 0"
10
1K
b0 1
b0 ?
b0 @
b0 P
b0 v
b0 E
b1 V
b1 x
b1 %"
b1 '"
b10000000000101 ."
b10011 *
b10011 8
b10011 A
b10011 I
b10011 ]
b0 .
b0 <
b0 C
b0 a
b101 c
b101 p
b0 &
b0 4
b0 T
b0 W
b0 r
b0 $"
b1 d
b1 o
b11111111111111111111111111111111 y
b0 X
b0 q
b0 w
b0 e
b0 n
b100000000001010010011 ^
b100000000001010010011 }
b1011 |
b110000 i
b101101 Y
b101101 j
b101101 !"
b101101 m
b0 p"
b101100 \
b101100 g
b101100 l
b101100 u
1"
#2300000
0"
#2400000
b110100 [
b110100 t
b110100 ""
b110100 #"
b0 U
b0 s
b0 +"
b0 -"
b0 f
b0 z
b0 ("
b110100 Z
b110100 h
b110100 ~
b110100 *"
1%
b0 {
b0 y
b0 V
b0 x
b0 %"
b0 '"
b0 _
b0 k
b0 &"
b0 0"
b110 ."
b110 c
b110 p
b0 d
b0 o
b1100010011 ^
b1100010011 }
b1100 |
b110100 i
b110000 Y
b110000 j
b110000 !"
b110000 m
b1 V"
b110000 \
b110000 g
b110000 l
b110000 u
1"
#2500000
0"
#2600000
b11100 2
b11100 5
b11100 b
b111000 [
b111000 t
b111000 ""
b111000 #"
b11111111111111111111111111110001 U
b11111111111111111111111111110001 s
b11111111111111111111111111110001 +"
b11111111111111111111111111110001 -"
b11111111111111111111111111110001 f
b11111111111111111111111111110001 z
b11111111111111111111111111110001 ("
b111000 Z
b111000 h
b111000 ~
b111000 *"
b10000 V
b10000 x
b10000 %"
b10000 '"
0%
b10000 _
b10000 k
b10000 &"
b10000 0"
b1 1
b1 ?
b1 @
b1 P
b1 v
b1 E
b1 >
b1 D
b1 F
b1 J
0(
0N
b10 ,
b10 :
b10 G
b10 R
b10 /"
b10 L
00
0K
1=
b11111111111111111111111111110001 {
b100100010100010000 ."
b1100011 *
b1100011 8
b1100011 A
b1100011 I
b1100011 ]
b10000 c
b10000 p
b10000 &
b10000 4
b10000 T
b10000 W
b10000 r
b10000 $"
b10010 d
b10010 o
b11111111111111111111111111110001 y
b1 X
b1 q
b1 w
b101 e
b101 n
b1001000101000100001100011 ^
b1001000101000100001100011 }
b1101 |
b111000 i
b1000100 Y
b1000100 j
b1000100 !"
b1000100 m
b0 W"
b110100 \
b110100 g
b110100 l
b110100 u
1"
