Procesador/procesador_TB.vcd
$date
	Sun Nov 24 20:41:57 2024
$end
$version
	Icarus Verilog
$end
$timescale
	1ps
$end
$scope module procesador_TB $end
$var parameter 32 ! DURATION $end
$var reg 1 " clk_test $end
$var reg 1 # reset_test $end
$var integer 32 $ i [31:0] $end
$scope module procesador_UUT $end
$var wire 1 " clk $end
$var wire 1 # reset $end
$var wire 1 % zero $end
$var wire 32 & wd [31:0] $end
$var wire 2 ' resultSrc [1:0] $end
$var wire 1 ( regWrite $end
$var wire 1 ) pcSrc $end
$var wire 7 * op [6:0] $end
$var wire 1 + memWrite $end
$var wire 2 , immSrc [1:0] $end
$var wire 7 - f7 [6:0] $end
$var wire 3 . f3 [2:0] $end
$var wire 32 / dm_Result [31:0] $end
$var wire 1 0 aluSrc $end
$var wire 3 1 aluControl [2:0] $end
$var wire 5 2 addressDM [4:0] $end
$scope module DM_inst $end
$var wire 1 " clk $end
$var wire 32 3 rd [31:0] $end
$var wire 1 + we $end
$var wire 32 4 wd [31:0] $end
$var wire 5 5 addressDM [4:0] $end
$upscope $end
$scope module UC_inst $end
$var wire 1 ) pcSrc $end
$var wire 1 % zero $end
$var wire 2 6 resultSrc [1:0] $end
$var wire 1 ( regWrite $end
$var wire 7 7 op [6:0] $end
$var wire 1 + memWrite $end
$var wire 1 8 jump $end
$var wire 2 9 immSrc [1:0] $end
$var wire 7 : f7 [6:0] $end
$var wire 3 ; f3 [2:0] $end
$var wire 1 < branch $end
$var wire 1 0 aluSrc $end
$var wire 2 = aluOp [1:0] $end
$var wire 3 > aluControl [2:0] $end
$scope module alu_deco_inst $end
$var wire 3 ? aluControl [2:0] $end
$var wire 7 @ op [6:0] $end
$var wire 7 A f7 [6:0] $end
$var wire 3 B f3 [2:0] $end
$var wire 2 C aluOp [1:0] $end
$var reg 3 D aluControlAux [2:0] $end
$upscope $end
$scope module m_deco_inst $end
$var wire 2 E aluOp [1:0] $end
$var wire 1 0 aluSrc $end
$var wire 2 F immSrc [1:0] $end
$var wire 1 + memWrite $end
$var wire 1 ( regWrite $end
$var wire 2 G resSrc [1:0] $end
$var wire 7 H op [6:0] $end
$var wire 1 8 jump $end
$var wire 1 < branch $end
$var reg 2 I aluOpAux [1:0] $end
$var reg 1 J aluSrcAux $end
$var reg 1 < branchAux $end
$var reg 2 K immSrcAux [1:0] $end
$var reg 1 8 jumpAux $end
$var reg 1 L memWriteAux $end
$var reg 1 M regWriteAux $end
$var reg 2 N resSrcAux [1:0] $end
$upscope $end
$upscope $end
$scope module datapath_inst $end
$var wire 3 O aluControl [2:0] $end
$var wire 1 0 aluSrc $end
$var wire 1 " clk $end
$var wire 32 P dm_Result [31:0] $end
$var wire 2 Q immSrc [1:0] $end
$var wire 1 ) pcSrc $end
$var wire 1 ( regWrite $end
$var wire 1 # reset $end
$var wire 2 R resultSrc [1:0] $end
$var wire 32 S wd [31:0] $end
$var wire 1 % zero $end
$var wire 32 T wd3 [31:0] $end
$var wire 32 U srcB [31:0] $end
$var wire 32 V rd2 [31:0] $end
$var wire 32 W rd1 [31:0] $end
$var wire 32 X pcPlusImm [31:0] $end
$var wire 32 Y pcPlus4 [31:0] $end
$var wire 32 Z pcNext [31:0] $end
$var wire 32 [ pc [31:0] $end
$var wire 7 \ op [6:0] $end
$var wire 32 ] instruction [31:0] $end
$var wire 32 ^ immExt [31:0] $end
$var wire 7 _ f7 [6:0] $end
$var wire 3 ` f3 [2:0] $end
$var wire 5 a addressDM [4:0] $end
$var wire 5 b a3 [4:0] $end
$var wire 5 c a2 [4:0] $end
$var wire 5 d a1 [4:0] $end
$var wire 32 e AluResult [31:0] $end
$scope module ALU_sum_4b_inst $end
$var wire 32 f src [31:0] $end
$var reg 32 g res [31:0] $end
$var reg 32 h res0 [31:0] $end
$upscope $end
$scope module ALU_sum_inst $end
$var wire 32 i res [31:0] $end
$var wire 32 j srcB [31:0] $end
$var wire 32 k srcA [31:0] $end
$var reg 32 l res0 [31:0] $end
$upscope $end
$scope module BR_inst $end
$var wire 5 m a1 [4:0] $end
$var wire 5 n a2 [4:0] $end
$var wire 5 o a3 [4:0] $end
$var wire 1 " clk $end
$var wire 32 p rd1 [31:0] $end
$var wire 32 q rd2 [31:0] $end
$var wire 1 ( regWrite $end
$var wire 32 r wd3 [31:0] $end
$upscope $end
$scope module PC_inst $end
$var wire 1 " clk $end
$var wire 1 # reset $end
$var wire 32 s pcNext [31:0] $end
$var reg 32 t pc [31:0] $end
$upscope $end
$scope module alu_inst $end
$var wire 3 u ALUControl [2:0] $end
$var wire 32 v srcA [31:0] $end
$var wire 1 % zero $end
$var wire 32 w srcB [31:0] $end
$var wire 32 x resta [31:0] $end
$var reg 32 y res [31:0] $end
$var reg 32 z res0 [31:0] $end
$upscope $end
$scope module mem_instr_inst $end
$var wire 5 { address [4:0] $end
$var reg 32 | rd [31:0] $end
$upscope $end
$scope module mp_2x1_inst0 $end
$var wire 32 } i1 [31:0] $end
$var wire 32 ~ i2 [31:0] $end
$var wire 32 !" out [31:0] $end
$var wire 1 ) sel $end
$var reg 32 "" aux [31:0] $end
$upscope $end
$scope module mp_2x1_inst1 $end
$var wire 32 #" i1 [31:0] $end
$var wire 32 $" out [31:0] $end
$var wire 1 0 sel $end
$var wire 32 %" i2 [31:0] $end
$var reg 32 &" aux [31:0] $end
$upscope $end
$scope module mp_3x1_inst0 $end
$var wire 32 '" i1 [31:0] $end
$var wire 32 (" i2 [31:0] $end
$var wire 32 )" i3 [31:0] $end
$var wire 32 *" out [31:0] $end
$var wire 2 +" sel [1:0] $end
$var reg 32 ," aux [31:0] $end
$upscope $end
$scope module sign_ext_inst $end
$var wire 25 -" inm [24:0] $end
$var wire 2 ." src [1:0] $end
$var reg 32 /" inmExt [31:0] $end
$upscope $end
$upscope $end
$upscope $end
$upscope $end
$scope module procesador_TB $end
$scope module procesador_UUT $end
$scope module DM_inst $end
$var reg 32 0" \MEM[0] [31:0] $end
$upscope $end
$upscope $end
$upscope $end
$scope module procesador_TB $end
$scope module procesador_UUT $end
$scope module DM_inst $end
$var reg 32 1" \MEM[1] [31:0] $end
$upscope $end
$upscope $end
$upscope $end
$scope module procesador_TB $end
$scope module procesador_UUT $end
$scope module DM_inst $end
$var reg 32 2" \MEM[2] [31:0] $end
$upscope $end
$upscope $end
$upscope $end
$scope module procesador_TB $end
$scope module procesador_UUT $end
$scope module DM_inst $end
$var reg 32 3" \MEM[3] [31:0] $end
$upscope $end
$upscope $end
$upscope $end
$scope module procesador_TB $end
$scope module procesador_UUT $end
$scope module DM_inst $end
$var reg 32 4" \MEM[4] [31:0] $end
$upscope $end
$upscope $end
$upscope $end
$scope module procesador_TB $end
$scope module procesador_UUT $end
$scope module DM_inst $end
$var reg 32 5" \MEM[5] [31:0] $end
$upscope $end
$upscope $end
$upscope $end
$scope module procesador_TB $end
$scope module procesador_UUT $end
$scope module DM_inst $end
$var reg 32 6" \MEM[6] [31:0] $end
$upscope $end
$upscope $end
$upscope $end
$scope module procesador_TB $end
$scope module procesador_UUT $end
$scope module DM_inst $end
$var reg 32 7" \MEM[7] [31:0] $end
$upscope $end
$upscope $end
$upscope $end
$scope module procesador_TB $end
$scope module procesador_UUT $end
$scope module DM_inst $end
$var reg 32 8" \MEM[8] [31:0] $end
$upscope $end
$upscope $end
$upscope $end
$scope module procesador_TB $end
$scope module procesador_UUT $end
$scope module DM_inst $end
$var reg 32 9" \MEM[9] [31:0] $end
$upscope $end
$upscope $end
$upscope $end
$scope module procesador_TB $end
$scope module procesador_UUT $end
$scope module DM_inst $end
$var reg 32 :" \MEM[10] [31:0] $end
$upscope $end
$upscope $end
$upscope $end
$scope module procesador_TB $end
$scope module procesador_UUT $end
$scope module DM_inst $end
$var reg 32 ;" \MEM[11] [31:0] $end
$upscope $end
$upscope $end
$upscope $end
$scope module procesador_TB $end
$scope module procesador_UUT $end
$scope module DM_inst $end
$var reg 32 <" \MEM[12] [31:0] $end
$upscope $end
$upscope $end
$upscope $end
$scope module procesador_TB $end
$scope module procesador_UUT $end
$scope module DM_inst $end
$var reg 32 =" \MEM[13] [31:0] $end
$upscope $end
$upscope $end
$upscope $end
$scope module procesador_TB $end
$scope module procesador_UUT $end
$scope module DM_inst $end
$var reg 32 >" \MEM[14] [31:0] $end
$upscope $end
$upscope $end
$upscope $end
$scope module procesador_TB $end
$scope module procesador_UUT $end
$scope module DM_inst $end
$var reg 32 ?" \MEM[15] [31:0] $end
$upscope $end
$upscope $end
$upscope $end
$scope module procesador_TB $end
$scope module procesador_UUT $end
$scope module DM_inst $end
$var reg 32 @" \MEM[16] [31:0] $end
$upscope $end
$upscope $end
$upscope $end
$scope module procesador_TB $end
$scope module procesador_UUT $end
$scope module DM_inst $end
$var reg 32 A" \MEM[17] [31:0] $end
$upscope $end
$upscope $end
$upscope $end
$scope module procesador_TB $end
$scope module procesador_UUT $end
$scope module DM_inst $end
$var reg 32 B" \MEM[18] [31:0] $end
$upscope $end
$upscope $end
$upscope $end
$scope module procesador_TB $end
$scope module procesador_UUT $end
$scope module DM_inst $end
$var reg 32 C" \MEM[19] [31:0] $end
$upscope $end
$upscope $end
$upscope $end
$scope module procesador_TB $end
$scope module procesador_UUT $end
$scope module DM_inst $end
$var reg 32 D" \MEM[20] [31:0] $end
$upscope $end
$upscope $end
$upscope $end
$scope module procesador_TB $end
$scope module procesador_UUT $end
$scope module DM_inst $end
$var reg 32 E" \MEM[21] [31:0] $end
$upscope $end
$upscope $end
$upscope $end
$scope module procesador_TB $end
$scope module procesador_UUT $end
$scope module DM_inst $end
$var reg 32 F" \MEM[22] [31:0] $end
$upscope $end
$upscope $end
$upscope $end
$scope module procesador_TB $end
$scope module procesador_UUT $end
$scope module DM_inst $end
$var reg 32 G" \MEM[23] [31:0] $end
$upscope $end
$upscope $end
$upscope $end
$scope module procesador_TB $end
$scope module procesador_UUT $end
$scope module DM_inst $end
$var reg 32 H" \MEM[24] [31:0] $end
$upscope $end
$upscope $end
$upscope $end
$scope module procesador_TB $end
$scope module procesador_UUT $end
$scope module DM_inst $end
$var reg 32 I" \MEM[25] [31:0] $end
$upscope $end
$upscope $end
$upscope $end
$scope module procesador_TB $end
$scope module procesador_UUT $end
$scope module DM_inst $end
$var reg 32 J" \MEM[26] [31:0] $end
$upscope $end
$upscope $end
$upscope $end
$scope module procesador_TB $end
$scope module procesador_UUT $end
$scope module DM_inst $end
$var reg 32 K" \MEM[27] [31:0] $end
$upscope $end
$upscope $end
$upscope $end
$scope module procesador_TB $end
$scope module procesador_UUT $end
$scope module DM_inst $end
$var reg 32 L" \MEM[28] [31:0] $end
$upscope $end
$upscope $end
$upscope $end
$scope module procesador_TB $end
$scope module procesador_UUT $end
$scope module DM_inst $end
$var reg 32 M" \MEM[29] [31:0] $end
$upscope $end
$upscope $end
$upscope $end
$scope module procesador_TB $end
$scope module procesador_UUT $end
$scope module DM_inst $end
$var reg 32 N" \MEM[30] [31:0] $end
$upscope $end
$upscope $end
$upscope $end
$scope module procesador_TB $end
$scope module procesador_UUT $end
$scope module DM_inst $end
$var reg 32 O" \MEM[31] [31:0] $end
$upscope $end
$upscope $end
$upscope $end
$scope module procesador_TB $end
$scope module procesador_UUT $end
$scope module datapath_inst $end
$scope module BR_inst $end
$var reg 32 P" \BankReg[0] [31:0] $end
$upscope $end
$upscope $end
$upscope $end
$upscope $end
$scope module procesador_TB $end
$scope module procesador_UUT $end
$scope module datapath_inst $end
$scope module BR_inst $end
$var reg 32 Q" \BankReg[1] [31:0] $end
$upscope $end
$upscope $end
$upscope $end
$upscope $end
$scope module procesador_TB $end
$scope module procesador_UUT $end
$scope module datapath_inst $end
$scope module BR_inst $end
$var reg 32 R" \BankReg[2] [31:0] $end
$upscope $end
$upscope $end
$upscope $end
$upscope $end
$scope module procesador_TB $end
$scope module procesador_UUT $end
$scope module datapath_inst $end
$scope module BR_inst $end
$var reg 32 S" \BankReg[3] [31:0] $end
$upscope $end
$upscope $end
$upscope $end
$upscope $end
$scope module procesador_TB $end
$scope module procesador_UUT $end
$scope module datapath_inst $end
$scope module BR_inst $end
$var reg 32 T" \BankReg[4] [31:0] $end
$upscope $end
$upscope $end
$upscope $end
$upscope $end
$scope module procesador_TB $end
$scope module procesador_UUT $end
$scope module datapath_inst $end
$scope module BR_inst $end
$var reg 32 U" \BankReg[5] [31:0] $end
$upscope $end
$upscope $end
$upscope $end
$upscope $end
$scope module procesador_TB $end
$scope module procesador_UUT $end
$scope module datapath_inst $end
$scope module BR_inst $end
$var reg 32 V" \BankReg[6] [31:0] $end
$upscope $end
$upscope $end
$upscope $end
$upscope $end
$scope module procesador_TB $end
$scope module procesador_UUT $end
$scope module datapath_inst $end
$scope module BR_inst $end
$var reg 32 W" \BankReg[7] [31:0] $end
$upscope $end
$upscope $end
$upscope $end
$upscope $end
$scope module procesador_TB $end
$scope module procesador_UUT $end
$scope module datapath_inst $end
$scope module BR_inst $end
$var reg 32 X" \BankReg[8] [31:0] $end
$upscope $end
$upscope $end
$upscope $end
$upscope $end
$scope module procesador_TB $end
$scope module procesador_UUT $end
$scope module datapath_inst $end
$scope module BR_inst $end
$var reg 32 Y" \BankReg[9] [31:0] $end
$upscope $end
$upscope $end
$upscope $end
$upscope $end
$scope module procesador_TB $end
$scope module procesador_UUT $end
$scope module datapath_inst $end
$scope module BR_inst $end
$var reg 32 Z" \BankReg[10] [31:0] $end
$upscope $end
$upscope $end
$upscope $end
$upscope $end
$scope module procesador_TB $end
$scope module procesador_UUT $end
$scope module datapath_inst $end
$scope module BR_inst $end
$var reg 32 [" \BankReg[11] [31:0] $end
$upscope $end
$upscope $end
$upscope $end
$upscope $end
$scope module procesador_TB $end
$scope module procesador_UUT $end
$scope module datapath_inst $end
$scope module BR_inst $end
$var reg 32 \" \BankReg[12] [31:0] $end
$upscope $end
$upscope $end
$upscope $end
$upscope $end
$scope module procesador_TB $end
$scope module procesador_UUT $end
$scope module datapath_inst $end
$scope module BR_inst $end
$var reg 32 ]" \BankReg[13] [31:0] $end
$upscope $end
$upscope $end
$upscope $end
$upscope $end
$scope module procesador_TB $end
$scope module procesador_UUT $end
$scope module datapath_inst $end
$scope module BR_inst $end
$var reg 32 ^" \BankReg[14] [31:0] $end
$upscope $end
$upscope $end
$upscope $end
$upscope $end
$scope module procesador_TB $end
$scope module procesador_UUT $end
$scope module datapath_inst $end
$scope module BR_inst $end
$var reg 32 _" \BankReg[15] [31:0] $end
$upscope $end
$upscope $end
$upscope $end
$upscope $end
$scope module procesador_TB $end
$scope module procesador_UUT $end
$scope module datapath_inst $end
$scope module BR_inst $end
$var reg 32 `" \BankReg[16] [31:0] $end
$upscope $end
$upscope $end
$upscope $end
$upscope $end
$scope module procesador_TB $end
$scope module procesador_UUT $end
$scope module datapath_inst $end
$scope module BR_inst $end
$var reg 32 a" \BankReg[17] [31:0] $end
$upscope $end
$upscope $end
$upscope $end
$upscope $end
$scope module procesador_TB $end
$scope module procesador_UUT $end
$scope module datapath_inst $end
$scope module BR_inst $end
$var reg 32 b" \BankReg[18] [31:0] $end
$upscope $end
$upscope $end
$upscope $end
$upscope $end
$scope module procesador_TB $end
$scope module procesador_UUT $end
$scope module datapath_inst $end
$scope module BR_inst $end
$var reg 32 c" \BankReg[19] [31:0] $end
$upscope $end
$upscope $end
$upscope $end
$upscope $end
$scope module procesador_TB $end
$scope module procesador_UUT $end
$scope module datapath_inst $end
$scope module BR_inst $end
$var reg 32 d" \BankReg[20] [31:0] $end
$upscope $end
$upscope $end
$upscope $end
$upscope $end
$scope module procesador_TB $end
$scope module procesador_UUT $end
$scope module datapath_inst $end
$scope module BR_inst $end
$var reg 32 e" \BankReg[21] [31:0] $end
$upscope $end
$upscope $end
$upscope $end
$upscope $end
$scope module procesador_TB $end
$scope module procesador_UUT $end
$scope module datapath_inst $end
$scope module BR_inst $end
$var reg 32 f" \BankReg[22] [31:0] $end
$upscope $end
$upscope $end
$upscope $end
$upscope $end
$scope module procesador_TB $end
$scope module procesador_UUT $end
$scope module datapath_inst $end
$scope module BR_inst $end
$var reg 32 g" \BankReg[23] [31:0] $end
$upscope $end
$upscope $end
$upscope $end
$upscope $end
$scope module procesador_TB $end
$scope module procesador_UUT $end
$scope module datapath_inst $end
$scope module BR_inst $end
$var reg 32 h" \BankReg[24] [31:0] $end
$upscope $end
$upscope $end
$upscope $end
$upscope $end
$scope module procesador_TB $end
$scope module procesador_UUT $end
$scope module datapath_inst $end
$scope module BR_inst $end
$var reg 32 i" \BankReg[25] [31:0] $end
$upscope $end
$upscope $end
$upscope $end
$upscope $end
$scope module procesador_TB $end
$scope module procesador_UUT $end
$scope module datapath_inst $end
$scope module BR_inst $end
$var reg 32 j" \BankReg[26] [31:0] $end
$upscope $end
$upscope $end
$upscope $end
$upscope $end
$scope module procesador_TB $end
$scope module procesador_UUT $end
$scope module datapath_inst $end
$scope module BR_inst $end
$var reg 32 k" \BankReg[27] [31:0] $end
$upscope $end
$upscope $end
$upscope $end
$upscope $end
$scope module procesador_TB $end
$scope module procesador_UUT $end
$scope module datapath_inst $end
$scope module BR_inst $end
$var reg 32 l" \BankReg[28] [31:0] $end
$upscope $end
$upscope $end
$upscope $end
$upscope $end
$scope module procesador_TB $end
$scope module procesador_UUT $end
$scope module datapath_inst $end
$scope module BR_inst $end
$var reg 32 m" \BankReg[29] [31:0] $end
$upscope $end
$upscope $end
$upscope $end
$upscope $end
$scope module procesador_TB $end
$scope module procesador_UUT $end
$scope module datapath_inst $end
$scope module BR_inst $end
$var reg 32 n" \BankReg[30] [31:0] $end
$upscope $end
$upscope $end
$upscope $end
$upscope $end
$scope module procesador_TB $end
$scope module procesador_UUT $end
$scope module datapath_inst $end
$scope module BR_inst $end
$var reg 32 o" \BankReg[31] [31:0] $end
$upscope $end
$upscope $end
$upscope $end
$upscope $end
$enddefinitions $end
$comment Show the parameter values. $end
$dumpall
b11111010 !
$end
#0
$dumpvars
bx o"
bx n"
bx m"
bx l"
bx k"
bx j"
bx i"
bx h"
bx g"
bx f"
bx e"
bx d"
bx c"
bx b"
bx a"
bx `"
bx _"
bx ^"
bx ]"
bx \"
bx ["
bx Z"
bx Y"
bx X"
bx W"
bx V"
bx U"
bx T"
bx S"
bx R"
bx Q"
b0 P"
bx O"
bx N"
bx M"
bx L"
bx K"
bx J"
bx I"
bx H"
bx G"
bx F"
bx E"
bx D"
bx C"
bx B"
bx A"
bx @"
bx ?"
bx >"
bx ="
bx <"
bx ;"
bx :"
bx 9"
bx 8"
bx 7"
bx 6"
bx 5"
bx 4"
bx 3"
bx 2"
bx 1"
bx 0"
b11 /"
b0 ."
b110000000001000 -"
b11 ,"
b0 +"
b11 *"
b100 )"
bx ("
b11 '"
b11 &"
b11 %"
b11 $"
bx #"
b100 ""
b100 !"
b11 ~
b100 }
b1100000000010000010011 |
b0 {
b11 z
b11 y
b11111111111111111111111111111101 x
b11 w
b0 v
b0 u
b0 t
b100 s
b11 r
bx q
b0 p
b1000 o
b11 n
b0 m
b11 l
b0 k
b11 j
b11 i
b100 h
b100 g
b0 f
b11 e
b0 d
b11 c
b1000 b
b0 a
b0 `
b0 _
b11 ^
b1100000000010000010011 ]
b10011 \
b0 [
b100 Z
b100 Y
b11 X
b0 W
bx V
b11 U
b11 T
bx S
b0 R
b0 Q
bx P
b0 O
b0 N
1M
0L
b0 K
1J
b10 I
b10011 H
b0 G
b0 F
b10 E
b0 D
b10 C
b0 B
b0 A
b10011 @
b0 ?
b0 >
b10 =
0<
b0 ;
b0 :
b0 9
08
b10011 7
b0 6
b0 5
bx 4
bx 3
b0 2
b0 1
10
bx /
b0 .
b0 -
b0 ,
0+
b10011 *
0)
1(
b0 '
bx &
0%
b100000 $
1#
1"
$end
#100000
0"
#200000
b1000 Z
b1000 s
b1000 !"
b1000 ""
b1 T
b1 r
b1 *"
b1 ,"
b1 e
b1 y
b1 '"
b1000 Y
b1000 g
b1000 }
b1000 )"
b1 z
b11111111111111111111111111111111 x
b1 U
b1 w
b1 $"
b1 &"
b1 ^
b1 j
b1 %"
b1 /"
b10000000001001 -"
b1001 b
b1001 o
b1 c
b1 n
b100000000010010010011 ]
b100000000010010010011 |
b1 {
b1000 h
b101 X
b101 i
b101 ~
b101 l
b0 P"
b11 X"
b100 [
b100 f
b100 k
b100 t
1"
0#
#300000
0"
#400000
b100 2
b100 5
b100 a
b1100 Z
b1100 s
b1100 !"
b1100 ""
b10000 T
b10000 r
b10000 *"
b10000 ,"
b10000 e
b10000 y
b10000 '"
b1100 Y
b1100 g
b1100 }
b1100 )"
b10000 z
b11111111111111111111111111110000 x
b10000 U
b10000 w
b10000 $"
b10000 &"
b10000 ^
b10000 j
b10000 %"
b10000 /"
b100000000000010010 -"
b10010 b
b10010 o
b10000 c
b10000 n
b1000000000000100100010011 ]
b1000000000000100100010011 |
b10 {
b1100 h
b11000 X
b11000 i
b11000 ~
b11000 l
b0 P"
b1 Y"
b1000 [
b1000 f
b1000 k
b1000 t
1"
#500000
0"
#600000
b0 2
b0 5
b0 a
b10000 Z
b10000 s
b10000 !"
b10000 ""
b1 T
b1 r
b1 *"
b1 ,"
b1 e
b1 y
b1 '"
b10000 Y
b10000 g
b10000 }
b10000 )"
b1 U
b1 w
b1 $"
b1 &"
b1001 ^
b1001 j
b1001 %"
b1001 /"
00
0J
b11 1
b11 >
b11 ?
b11 O
b11 u
b11 D
b1 z
b10010100011000101 -"
b110011 *
b110011 7
b110011 @
b110011 H
b110011 \
b110 .
b110 ;
b110 B
b110 `
b101 b
b101 o
b1 &
b1 4
b1 S
b1 V
b1 q
b1 #"
b1001 c
b1001 n
b10 x
b11 W
b11 p
b11 v
b1000 d
b1000 m
b100101000110001010110011 ]
b100101000110001010110011 |
b11 {
b10000 h
b10101 X
b10101 i
b10101 ~
b10101 l
b0 P"
b10000 b"
b1100 [
b1100 f
b1100 k
b1100 t
1"
#700000
0"
#800000
b10100 Z
b10100 s
b10100 !"
b10100 ""
b10100 Y
b10100 g
b10100 }
b10100 )"
b10 1
b10 >
b10 ?
b10 O
b10 u
b10 D
b10010100011100110 -"
b111 .
b111 ;
b111 B
b111 `
b110 b
b110 o
b100101000111001100110011 ]
b100101000111001100110011 |
b100 {
b10100 h
b11001 X
b11001 i
b11001 ~
b11001 l
b0 P"
b1 U"
b10000 [
b10000 f
b10000 k
b10000 t
1"
#900000
0"
#1000000
b1 2
b1 5
b1 a
b11000 Z
b11000 s
b11000 !"
b11000 ""
b100 T
b100 r
b100 *"
b100 ,"
b100 e
b100 y
b100 '"
b11000 Y
b11000 g
b11000 }
b11000 )"
b100 z
b0 1
b0 >
b0 ?
b0 O
b0 u
b0 D
b10010100000000111 -"
b0 .
b0 ;
b0 B
b0 `
b111 b
b111 o
b100101000000001110110011 ]
b100101000000001110110011 |
b101 {
b11000 h
b11101 X
b11101 i
b11101 ~
b11101 l
b0 P"
b1 V"
b10100 [
b10100 f
b10100 k
b10100 t
1"
#1100000
0"
#1200000
b0 2
b0 5
b0 a
b11100 Z
b11100 s
b11100 !"
b11100 ""
b10 T
b10 r
b10 *"
b10 ,"
b10 e
b10 y
b10 '"
b11100 Y
b11100 g
b11100 }
b11100 )"
b10 z
b10000001001 ^
b10000001001 j
b10000001001 %"
b10000001001 /"
b1 1
b1 >
b1 ?
b1 O
b1 u
b1 D
b100000010010100000011100 -"
b100000 -
b100000 :
b100000 A
b100000 _
b11100 b
b11100 o
b1000000100101000000111000110011 ]
b1000000100101000000111000110011 |
b110 {
b11100 h
b10000100001 X
b10000100001 i
b10000100001 ~
b10000100001 l
b0 P"
b100 W"
b11000 [
b11000 f
b11000 k
b11000 t
1"
#1300000
0"
#1400000
b11111 2
b11111 5
b11111 a
b100000 Z
b100000 s
b100000 !"
b100000 ""
b11111111111111111111111111111110 T
b11111111111111111111111111111110 r
b11111111111111111111111111111110 *"
b11111111111111111111111111111110 ,"
b11111111111111111111111111111110 e
b11111111111111111111111111111110 y
b11111111111111111111111111111110 '"
b100000 Y
b100000 g
b100000 }
b100000 )"
0%
b10000001000 ^
b10000001000 j
b10000001000 %"
b10000001000 /"
b11 U
b11 w
b11 $"
b11 &"
b11111111111111111111111111111110 z
b100000010000100100011101 -"
b11101 b
b11101 o
b11 &
b11 4
b11 S
b11 V
b11 q
b11 #"
b1000 c
b1000 n
b11111111111111111111111111111110 x
b1 W
b1 p
b1 v
b1001 d
b1001 m
b1000000100001001000111010110011 ]
b1000000100001001000111010110011 |
b111 {
b100000 h
b10000100100 X
b10000100100 i
b10000100100 ~
b10000100100 l
b0 P"
b10 l"
b11100 [
b11100 f
b11100 k
b11100 t
1"
#1500000
0"
#1600000
b0 2
b0 5
b0 a
b100100 Z
b100100 s
b100100 !"
b100100 ""
b0 T
b0 r
b0 *"
b0 ,"
b0 e
b0 y
b0 '"
b100100 Y
b100100 g
b100100 }
b100100 )"
1%
b1001 ^
b1001 j
b1001 %"
b1001 /"
b101 1
b101 >
b101 ?
b101 O
b101 u
b101 D
b1 U
b1 w
b1 $"
b1 &"
b0 z
b10010100001011110 -"
b10 .
b10 ;
b10 B
b10 `
b0 -
b0 :
b0 A
b0 _
b11110 b
b11110 o
b1 &
b1 4
b1 S
b1 V
b1 q
b1 #"
b1001 c
b1001 n
b10 x
b11 W
b11 p
b11 v
b1000 d
b1000 m
b100101000010111100110011 ]
b100101000010111100110011 |
b1000 {
b100100 h
b101001 X
b101001 i
b101001 ~
b101001 l
b0 P"
b11111111111111111111111111111110 m"
b100000 [
b100000 f
b100000 k
b100000 t
1"
#1700000
0"
#1800000
b101000 Z
b101000 s
b101000 !"
b101000 ""
b1 T
b1 r
b1 *"
b1 ,"
b1 e
b1 y
b1 '"
b101000 Y
b101000 g
b101000 }
b101000 )"
0%
b1 z
b1000 ^
b1000 j
b1000 %"
b1000 /"
b11 U
b11 w
b11 $"
b11 &"
b10000100101011111 -"
b11111 b
b11111 o
b11 &
b11 4
b11 S
b11 V
b11 q
b11 #"
b1000 c
b1000 n
b11111111111111111111111111111110 x
b1 W
b1 p
b1 v
b1001 d
b1001 m
b100001001010111110110011 ]
b100001001010111110110011 |
b1001 {
b101000 h
b101100 X
b101100 i
b101100 ~
b101100 l
b0 P"
b0 n"
b100100 [
b100100 f
b100100 k
b100100 t
1"
#1900000
0"
#2000000
b101100 Z
b101100 s
b101100 !"
b101100 ""
b0 T
b0 r
b0 *"
b0 ,"
b0 e
b0 y
b0 '"
b101100 Y
b101100 g
b101100 }
b101100 )"
1%
b0 z
b11101 ^
b11101 j
b11101 %"
b11101 /"
b11 x
b11111111111111111111111111111110 U
b11111111111111111111111111111110 w
b11111111111111111111111111111110 $"
b11111111111111111111111111111110 &"
b111010100101011111 -"
b11111111111111111111111111111110 &
b11111111111111111111111111111110 4
b11111111111111111111111111111110 S
b11111111111111111111111111111110 V
b11111111111111111111111111111110 q
b11111111111111111111111111111110 #"
b11101 c
b11101 n
b1110101001010111110110011 ]
b1110101001010111110110011 |
b1010 {
b101100 h
b1000101 X
b1000101 i
b1000101 ~
b1000101 l
b0 P"
b1 o"
b101000 [
b101000 f
b101000 k
b101000 t
1"
#2100000
0"
#2200000
b110000 Z
b110000 s
b110000 !"
b110000 ""
b1 T
b1 r
b1 *"
b1 ,"
b1 e
b1 y
b1 '"
b110000 Y
b110000 g
b110000 }
b110000 )"
0%
b1 z
b1 ^
b1 j
b1 %"
b1 /"
10
1J
b0 1
b0 >
b0 ?
b0 O
b0 u
b0 D
b1 U
b1 w
b1 $"
b1 &"
b10000000000101 -"
b10011 *
b10011 7
b10011 @
b10011 H
b10011 \
b0 .
b0 ;
b0 B
b0 `
b101 b
b101 o
bx &
bx 4
bx S
bx V
bx q
bx #"
b1 c
b1 n
b11111111111111111111111111111111 x
b0 W
b0 p
b0 v
b0 d
b0 m
b100000000001010010011 ]
b100000000001010010011 |
b1011 {
b110000 h
b101101 X
b101101 i
b101101 ~
b101101 l
b0 P"
b0 o"
b101100 [
b101100 f
b101100 k
b101100 t
1"
#2300000
0"
#2400000
b110100 Z
b110100 s
b110100 !"
b110100 ""
b0 T
b0 r
b0 *"
b0 ,"
b0 e
b0 y
b0 '"
b110100 Y
b110100 g
b110100 }
b110100 )"
1%
b0 z
b0 x
b0 U
b0 w
b0 $"
b0 &"
b0 ^
b0 j
b0 %"
b0 /"
b110 -"
b110 b
b110 o
b0 &
b0 4
b0 S
b0 V
b0 q
b0 #"
b0 c
b0 n
b1100010011 ]
b1100010011 |
b1100 {
b110100 h
b110000 X
b110000 i
b110000 ~
b110000 l
b0 P"
b1 U"
b110000 [
b110000 f
b110000 k
b110000 t
1"
#2500000
0"
