Procesador/procesador_TB.vcd
$date
	Mon Nov 18 20:47:51 2024
$end
$version
	Icarus Verilog
$end
$timescale
	1ps
$end
$scope module procesador_TB $end
$var parameter 32 ! DURATION $end
$var reg 1 " clk_test $end
$var reg 1 # reset_test $end
$var integer 32 $ i [31:0] $end
$scope module procesador_UUT $end
$var wire 1 " clk $end
$var wire 1 # reset $end
$var wire 32 % zero [31:0] $end
$var wire 2 & resultSrc [1:0] $end
$var wire 1 ' regWrite $end
$var wire 1 ( pcSrc $end
$var wire 7 ) op [6:0] $end
$var wire 1 * memWrite $end
$var wire 2 + immSrc [1:0] $end
$var wire 7 , f7 [6:0] $end
$var wire 3 - f3 [2:0] $end
$var wire 1 . aluSrc $end
$var wire 3 / aluControl [2:0] $end
$scope module UC_inst $end
$var wire 1 ( pcSrc $end
$var wire 32 0 zero [31:0] $end
$var wire 2 1 resultSrc [1:0] $end
$var wire 1 ' regWrite $end
$var wire 7 2 op [6:0] $end
$var wire 1 * memWrite $end
$var wire 1 3 jump $end
$var wire 2 4 immSrc [1:0] $end
$var wire 7 5 f7 [6:0] $end
$var wire 3 6 f3 [2:0] $end
$var wire 1 7 branch $end
$var wire 1 . aluSrc $end
$var wire 2 8 aluOp [1:0] $end
$var wire 3 9 aluControl [2:0] $end
$scope module alu_deco_inst $end
$var wire 3 : aluControl [2:0] $end
$var wire 7 ; op [6:0] $end
$var wire 7 < f7 [6:0] $end
$var wire 3 = f3 [2:0] $end
$var wire 2 > aluOp [1:0] $end
$var reg 3 ? aluControlAux [2:0] $end
$upscope $end
$scope module m_deco_inst $end
$var wire 2 @ aluOp [1:0] $end
$var wire 1 . aluSrc $end
$var wire 2 A immSrc [1:0] $end
$var wire 1 * memWrite $end
$var wire 1 ' regWrite $end
$var wire 2 B resSrc [1:0] $end
$var wire 7 C op [6:0] $end
$var wire 1 3 jump $end
$var wire 1 7 branch $end
$var reg 2 D aluOpAux [1:0] $end
$var reg 1 E aluSrcAux $end
$var reg 1 7 branchAux $end
$var reg 2 F immSrcAux [1:0] $end
$var reg 1 3 jumpAux $end
$var reg 1 G memWriteAux $end
$var reg 1 H regWriteAux $end
$var reg 2 I resSrcAux [1:0] $end
$upscope $end
$upscope $end
$scope module datapath_inst $end
$var wire 3 J aluControl [2:0] $end
$var wire 1 . aluSrc $end
$var wire 1 " clk $end
$var wire 2 K immSrc [1:0] $end
$var wire 1 * memWrite $end
$var wire 1 ( pcSrc $end
$var wire 1 ' regWrite $end
$var wire 1 # reset $end
$var wire 2 L resultSrc [1:0] $end
$var wire 32 M zero [31:0] $end
$var wire 32 N wd3 [31:0] $end
$var wire 32 O srcB [31:0] $end
$var wire 32 P rd2 [31:0] $end
$var wire 32 Q rd1 [31:0] $end
$var wire 32 R pcPlusImm [31:0] $end
$var wire 32 S pcPlus4 [31:0] $end
$var wire 32 T pcNext [31:0] $end
$var wire 32 U pc [31:0] $end
$var wire 7 V op [6:0] $end
$var wire 32 W instruction [31:0] $end
$var wire 32 X immExt [31:0] $end
$var wire 7 Y f7 [6:0] $end
$var wire 3 Z f3 [2:0] $end
$var wire 32 [ dm_Result [31:0] $end
$var wire 5 \ a3 [4:0] $end
$var wire 5 ] a2 [4:0] $end
$var wire 5 ^ a1 [4:0] $end
$var wire 32 _ AluResult [31:0] $end
$scope module ALU_sum_4b_inst $end
$var wire 32 ` src [31:0] $end
$var reg 32 a res [31:0] $end
$var reg 32 b res0 [31:0] $end
$upscope $end
$scope module ALU_sum_inst $end
$var wire 32 c srcB [31:0] $end
$var wire 32 d srcA [31:0] $end
$var reg 32 e res [31:0] $end
$var reg 32 f res0 [31:0] $end
$upscope $end
$scope module BR_inst $end
$var wire 5 g a1 [4:0] $end
$var wire 5 h a2 [4:0] $end
$var wire 5 i a3 [4:0] $end
$var wire 1 " clk $end
$var wire 1 ' regWrite $end
$var wire 32 j wd3 [31:0] $end
$var reg 32 k rd1 [31:0] $end
$var reg 32 l rd2 [31:0] $end
$upscope $end
$scope module DM_inst $end
$var wire 5 m addressDM [4:0] $end
$var wire 1 " clk $end
$var wire 32 n wd [31:0] $end
$var wire 1 * we $end
$var reg 32 o rd [31:0] $end
$upscope $end
$scope module PC_inst $end
$var wire 1 " clk $end
$var wire 1 # reset $end
$var wire 32 p pcNext [31:0] $end
$var reg 32 q pc [31:0] $end
$upscope $end
$scope module alu_inst $end
$var wire 3 r ALUControl [2:0] $end
$var wire 32 s srcA [31:0] $end
$var wire 32 t srcB [31:0] $end
$var reg 32 u res [31:0] $end
$var reg 32 v res0 [31:0] $end
$var reg 32 w zero [31:0] $end
$upscope $end
$scope module mem_instr_inst $end
$var wire 5 x address [4:0] $end
$var reg 32 y rd [31:0] $end
$upscope $end
$scope module mp_2x1_inst0 $end
$var wire 32 z i1 [31:0] $end
$var wire 32 { i2 [31:0] $end
$var wire 32 | out [31:0] $end
$var wire 1 ( sel $end
$var reg 32 } aux [31:0] $end
$upscope $end
$scope module mp_2x1_inst1 $end
$var wire 32 ~ i1 [31:0] $end
$var wire 32 !" out [31:0] $end
$var wire 1 . sel $end
$var wire 32 "" i2 [31:0] $end
$var reg 32 #" aux [31:0] $end
$upscope $end
$scope module mp_3x1_inst0 $end
$var wire 32 $" i1 [31:0] $end
$var wire 32 %" i2 [31:0] $end
$var wire 32 &" i3 [31:0] $end
$var wire 32 '" out [31:0] $end
$var wire 2 (" sel [1:0] $end
$var reg 32 )" aux [31:0] $end
$upscope $end
$scope module sign_ext_inst $end
$var wire 25 *" inm [24:0] $end
$var wire 2 +" src [1:0] $end
$var reg 32 ," inmExt [31:0] $end
$upscope $end
$upscope $end
$upscope $end
$upscope $end
$enddefinitions $end
$comment Show the parameter values. $end
$dumpall
b1100100 !
$end
#0
$dumpvars
b11 ,"
b0 +"
b110000000001000 *"
bx )"
b0 ("
bx '"
b100 &"
bx %"
bx $"
b11 #"
b11 ""
b11 !"
bx ~
b100 }
b100 |
b11 {
b100 z
b1100000000010000010011 y
b0 x
b0 w
bx v
bx u
b11 t
bx s
b0 r
b0 q
b100 p
bx o
bx n
bx m
bx l
bx k
bx j
b1000 i
b11 h
b0 g
b11 f
b11 e
b0 d
b11 c
b100 b
b100 a
b0 `
bx _
b0 ^
b11 ]
b1000 \
bx [
b0 Z
b0 Y
b11 X
b1100000000010000010011 W
b10011 V
b0 U
b100 T
b100 S
b11 R
bx Q
bx P
b11 O
bx N
b0 M
b0 L
b0 K
b0 J
b0 I
1H
0G
b0 F
1E
b10 D
b10011 C
b0 B
b0 A
b10 @
b0 ?
b10 >
b0 =
b0 <
b10011 ;
b0 :
b0 9
b10 8
07
b0 6
b0 5
b0 4
03
b10011 2
b0 1
b0 0
b0 /
1.
b0 -
b0 ,
b0 +
0*
b10011 )
0(
1'
b0 &
b0 %
b100000 $
1#
0"
$end
#100000
1"
#200000
0"
#300000
1"
#400000
0"
#500000
b1000 T
b1000 p
b1000 |
b1000 }
b1000 S
b1000 a
b1000 z
b1000 &"
b101 R
b101 e
b101 {
b1 O
b1 t
b1 !"
b1 #"
b1 X
b1 c
b1 ""
b1 ,"
b10000000001001 *"
b1001 \
b1001 i
b1 ]
b1 h
b100000000010010010011 W
b100000000010010010011 y
b1 x
b1000 b
b101 f
b100 U
b100 `
b100 d
b100 q
1"
0#
#600000
0"
#700000
b1100 T
b1100 p
b1100 |
b1100 }
b1100 S
b1100 a
b1100 z
b1100 &"
b11000 R
b11000 e
b11000 {
b10000 O
b10000 t
b10000 !"
b10000 #"
b10000 X
b10000 c
b10000 ""
b10000 ,"
b100000000000010010 *"
b10010 \
b10010 i
b10000 ]
b10000 h
b1000000000000100100010011 W
b1000000000000100100010011 y
b10 x
b1100 b
b11000 f
b1000 U
b1000 `
b1000 d
b1000 q
1"
#800000
0"
#900000
b0 m
b0x N
b0x j
b0x '"
b0x )"
b10000 T
b10000 p
b10000 |
b10000 }
b0x _
b0x u
b0x $"
b10000 S
b10000 a
b10000 z
b10000 &"
b10101 R
b10101 e
b10101 {
bx O
bx t
bx !"
bx #"
b0x v
b1001 X
b1001 c
b1001 ""
b1001 ,"
0.
0E
b11 /
b11 9
b11 :
b11 J
b11 r
b11 ?
b10010100011000101 *"
b110011 )
b110011 2
b110011 ;
b110011 C
b110011 V
b110 -
b110 6
b110 =
b110 Z
b101 \
b101 i
b1001 ]
b1001 h
b1000 ^
b1000 g
b100101000110001010110011 W
b100101000110001010110011 y
b11 x
b10000 b
b10101 f
b1100 U
b1100 `
b1100 d
b1100 q
1"
#1000000
0"
#1100000
b10100 T
b10100 p
b10100 |
b10100 }
b10100 S
b10100 a
b10100 z
b10100 &"
b11001 R
b11001 e
b11001 {
b10 /
b10 9
b10 :
b10 J
b10 r
b10 ?
b10010100011100110 *"
b111 -
b111 6
b111 =
b111 Z
b110 \
b110 i
b100101000111001100110011 W
b100101000111001100110011 y
b100 x
b10100 b
b11001 f
b10000 U
b10000 `
b10000 d
b10000 q
1"
#1200000
0"
#1300000
bx m
bx N
bx j
bx '"
bx )"
b11000 T
b11000 p
b11000 |
b11000 }
bx _
bx u
bx $"
b11000 S
b11000 a
b11000 z
b11000 &"
b11101 R
b11101 e
b11101 {
bx v
b0 /
b0 9
b0 :
b0 J
b0 r
b0 ?
b10010100000000111 *"
b0 -
b0 6
b0 =
b0 Z
b111 \
b111 i
b100101000000001110110011 W
b100101000000001110110011 y
b101 x
b11000 b
b11101 f
b10100 U
b10100 `
b10100 d
b10100 q
1"
#1400000
0"
#1500000
b11100 T
b11100 p
b11100 |
b11100 }
b11100 S
b11100 a
b11100 z
b11100 &"
b10000100001 R
b10000100001 e
b10000100001 {
b10000001001 X
b10000001001 c
b10000001001 ""
b10000001001 ,"
b1 /
b1 9
b1 :
b1 J
b1 r
b1 ?
b100000010010100000011100 *"
b100000 ,
b100000 5
b100000 <
b100000 Y
b11100 \
b11100 i
b1000000100101000000111000110011 W
b1000000100101000000111000110011 y
b110 x
b11100 b
b10000100001 f
b11000 U
b11000 `
b11000 d
b11000 q
1"
#1600000
0"
#1700000
b100000 T
b100000 p
b100000 |
b100000 }
b100000 S
b100000 a
b100000 z
b100000 &"
b10000100100 R
b10000100100 e
b10000100100 {
b10000001000 X
b10000001000 c
b10000001000 ""
b10000001000 ,"
b100000010000100100011101 *"
b11101 \
b11101 i
b1000 ]
b1000 h
b1001 ^
b1001 g
b1000000100001001000111010110011 W
b1000000100001001000111010110011 y
b111 x
b100000 b
b10000100100 f
b11100 U
b11100 `
b11100 d
b11100 q
1"
#1800000
0"
#1900000
b100100 T
b100100 p
b100100 |
b100100 }
b100100 S
b100100 a
b100100 z
b100100 &"
b101001 R
b101001 e
b101001 {
b1001 X
b1001 c
b1001 ""
b1001 ,"
b101 /
b101 9
b101 :
b101 J
b101 r
b101 ?
b10010100001011110 *"
b10 -
b10 6
b10 =
b10 Z
b0 ,
b0 5
b0 <
b0 Y
b11110 \
b11110 i
b1001 ]
b1001 h
b1000 ^
b1000 g
b100101000010111100110011 W
b100101000010111100110011 y
b1000 x
b100100 b
b101001 f
b100000 U
b100000 `
b100000 d
b100000 q
1"
#2000000
0"
#2100000
b101000 T
b101000 p
b101000 |
b101000 }
b101000 S
b101000 a
b101000 z
b101000 &"
b101100 R
b101100 e
b101100 {
b1000 X
b1000 c
b1000 ""
b1000 ,"
b10000100101011111 *"
b11111 \
b11111 i
b1000 ]
b1000 h
b1001 ^
b1001 g
b100001001010111110110011 W
b100001001010111110110011 y
b1001 x
b101000 b
b101100 f
b100100 U
b100100 `
b100100 d
b100100 q
1"
#2200000
0"
#2300000
b101100 T
b101100 p
b101100 |
b101100 }
b101100 S
b101100 a
b101100 z
b101100 &"
b1000101 R
b1000101 e
b1000101 {
b11101 X
b11101 c
b11101 ""
b11101 ,"
b111010100101011111 *"
b11101 ]
b11101 h
b1110101001010111110110011 W
b1110101001010111110110011 y
b1010 x
b101100 b
b1000101 f
b101000 U
b101000 `
b101000 d
b101000 q
1"
#2400000
0"
#2500000
b110000 T
b110000 p
b110000 |
b110000 }
b110000 S
b110000 a
b110000 z
b110000 &"
b101101 R
b101101 e
b101101 {
b1 O
b1 t
b1 !"
b1 #"
b1 X
b1 c
b1 ""
b1 ,"
1.
1E
b0 /
b0 9
b0 :
b0 J
b0 r
b0 ?
b10000000000101 *"
b10011 )
b10011 2
b10011 ;
b10011 C
b10011 V
b0 -
b0 6
b0 =
b0 Z
b101 \
b101 i
b1 ]
b1 h
b0 ^
b0 g
b100000000001010010011 W
b100000000001010010011 y
b1011 x
b110000 b
b101101 f
b101100 U
b101100 `
b101100 d
b101100 q
1"
#2600000
0"
#2700000
b110100 T
b110100 p
b110100 |
b110100 }
b110100 S
b110100 a
b110100 z
b110100 &"
b110000 R
b110000 e
b110000 {
b0 O
b0 t
b0 !"
b0 #"
b0 X
b0 c
b0 ""
b0 ,"
b110 *"
b110 \
b110 i
b0 ]
b0 h
b1100010011 W
b1100010011 y
b1100 x
b110100 b
b110000 f
b110000 U
b110000 `
b110000 d
b110000 q
1"
#2800000
0"
#2900000
b111000 T
b111000 p
b111000 |
b111000 }
b111000 S
b111000 a
b111000 z
b111000 &"
b1000100 R
b1000100 e
b1000100 {
bx O
bx t
bx !"
bx #"
b10000 X
b10000 c
b10000 ""
b10000 ,"
b1 /
b1 9
b1 :
b1 J
b1 r
b1 ?
b1 8
b1 >
b1 @
b1 D
0'
0H
b10 +
b10 4
b10 A
b10 K
b10 +"
b10 F
0.
0E
17
b100100010100010000 *"
b1100011 )
b1100011 2
b1100011 ;
b1100011 C
b1100011 V
b10000 \
b10000 i
b10010 ]
b10010 h
b101 ^
b101 g
b1001000101000100001100011 W
b1001000101000100001100011 y
b1101 x
b111000 b
b1000100 f
b110100 U
b110100 `
b110100 d
b110100 q
1"
#3000000
0"
#3100000
b111100 T
b111100 p
b111100 |
b111100 }
b111100 S
b111100 a
b111100 z
b111100 &"
b100000111100 R
b100000111100 e
b100000111100 {
b100000000100 X
b100000000100 c
b100000000100 ""
b100000000100 ,"
b0 /
b0 9
b0 :
b0 J
b0 r
b0 ?
b10 8
b10 >
b10 @
b10 D
1'
1H
07
b1010010100000101 *"
b110011 )
b110011 2
b110011 ;
b110011 C
b110011 V
b101 \
b101 i
b101 ]
b101 h
b10100101000001010110011 W
b10100101000001010110011 y
b1110 x
b111100 b
b100000111100 f
b111000 U
b111000 `
b111000 d
b111000 q
1"
#3200000
0"
#3300000
b1000000 T
b1000000 p
b1000000 |
b1000000 }
b1000000 S
b1000000 a
b1000000 z
b1000000 &"
b111101 R
b111101 e
b111101 {
b1 O
b1 t
b1 !"
b1 #"
b1 X
b1 c
b1 ""
b1 ,"
b0 +
b0 4
b0 A
b0 K
b0 +"
b0 F
1.
1E
b10011000000110 *"
b10011 )
b10011 2
b10011 ;
b10011 C
b10011 V
b110 \
b110 i
b1 ]
b1 h
b110 ^
b110 g
b100110000001100010011 W
b100110000001100010011 y
b1111 x
b1000000 b
b111101 f
b111100 U
b111100 `
b111100 d
b111100 q
1"
#3400000
0"
#3500000
b0 m
b0x _
b0x u
b0x $"
b1000100 S
b1000100 a
b1000100 z
b1000100 &"
b110100 R
b110100 e
b110100 {
b110100 T
b110100 p
b110100 |
b110100 }
b11111111111111111111111111110100 O
b11111111111111111111111111110100 t
b11111111111111111111111111110100 !"
b11111111111111111111111111110100 #"
b1000100 N
b1000100 j
b1000100 '"
b1000100 )"
1(
b0x v
b11111111111111111111111111110100 X
b11111111111111111111111111110100 c
b11111111111111111111111111110100 ""
b11111111111111111111111111110100 ,"
b11 +
b11 4
b11 A
b11 K
b11 +"
b11 F
b10 &
b10 1
b10 B
b10 L
b10 ("
b10 I
13
b10 /
b10 9
b10 :
b10 J
b10 r
b10 ?
b1111111101011111111100000 *"
b1101111 )
b1101111 2
b1101111 ;
b1101111 C
b1101111 V
b111 -
b111 6
b111 =
b111 Z
b1111111 ,
b1111111 5
b1111111 <
b1111111 Y
b0 \
b0 i
b10101 ]
b10101 h
b11111 ^
b11111 g
b11111111010111111111000001101111 W
b11111111010111111111000001101111 y
b10000 x
b1000100 b
b110100 f
b1000000 U
b1000000 `
b1000000 d
b1000000 q
1"
#3600000
0"
#3700000
bx m
b111000 N
b111000 j
b111000 '"
b111000 )"
b1000100 T
b1000100 p
b1000100 |
b1000100 }
bx _
bx u
bx $"
b111000 S
b111000 a
b111000 z
b111000 &"
b1000100 R
b1000100 e
b1000100 {
bx O
bx t
bx !"
bx #"
bx v
b10000 X
b10000 c
b10000 ""
b10000 ,"
b1 8
b1 >
b1 @
b1 D
0'
0H
b10 +
b10 4
b10 A
b10 K
b10 +"
b10 F
0.
0E
17
b1 /
b1 9
b1 :
b1 J
b1 r
b1 ?
b100100010100010000 *"
b1100011 )
b1100011 2
b1100011 ;
b1100011 C
b1100011 V
b0 -
b0 6
b0 =
b0 Z
b0 ,
b0 5
b0 <
b0 Y
b10000 \
b10000 i
b10010 ]
b10010 h
b101 ^
b101 g
b1001000101000100001100011 W
b1001000101000100001100011 y
b1101 x
b111000 b
b1000100 f
b110100 U
b110100 `
b110100 d
b110100 q
1"
#3800000
0"
#3900000
b100001001100 T
b100001001100 p
b100001001100 |
b100001001100 }
b1001000 S
b1001000 a
b1001000 z
b1001000 &"
b100001001100 R
b100001001100 e
b100001001100 {
bx N
bx j
bx '"
bx )"
b100000001000 X
b100000001000 c
b100000001000 ""
b100000001000 ,"
b0 /
b0 9
b0 :
b0 J
b0 r
b0 ?
b10 8
b10 >
b10 @
b10 D
1'
1H
b0 &
b0 1
b0 B
b0 L
b0 ("
b0 I
07
b1001 *"
b110011 )
b110011 2
b110011 ;
b110011 C
b110011 V
b1001 \
b1001 i
b0 ]
b0 h
b0 ^
b0 g
b10010110011 W
b10010110011 y
b10001 x
b1001000 b
b100001001100 f
b1000100 U
b1000100 `
b1000100 d
b1000100 q
1"
#4000000
0"
#4100000
b10011 m
b1001110 N
b1001110 j
b1001110 '"
b1001110 )"
b100001010110 T
b100001010110 p
b100001010110 |
b100001010110 }
b1001110 _
b1001110 u
b1001110 $"
b100001010000 S
b100001010000 a
b100001010000 z
b100001010000 &"
b100001010110 R
b100001010110 e
b100001010110 {
b1010 X
b1010 c
b1010 ""
b1010 ,"
b0 +
b0 4
b0 A
b0 K
b0 +"
b0 F
1.
1E
b10100000000000110 *"
b10011 )
b10011 2
b10011 ;
b10011 C
b10011 V
b110 \
b110 i
b1010 ]
b1010 h
b1001110 v
b101000000000001100010011 W
b101000000000001100010011 y
b1010 O
b1010 t
b1010 !"
b1010 #"
b10011 x
b100001010000 b
b100001010110 f
b1000100 P
b1000100 l
b1000100 n
b1000100 ~
b1000100 Q
b1000100 k
b1000100 s
b100001001100 U
b100001001100 `
b100001001100 d
b100001001100 q
1"
#4200000
0"
#4300000
bx m
bx N
bx j
bx '"
bx )"
b100001011110 T
b100001011110 p
b100001011110 |
b100001011110 }
bx _
bx u
bx $"
b100001011010 S
b100001011010 a
b100001011010 z
b100001011010 &"
b100001011110 R
b100001011110 e
b100001011110 {
bx v
bx O
bx t
bx !"
bx #"
b1000 X
b1000 c
b1000 ""
b1000 ,"
0.
0E
b10000100100001001 *"
b110011 )
b110011 2
b110011 ;
b110011 C
b110011 V
b1001 \
b1001 i
b1000 ]
b1000 h
b1001 ^
b1001 g
b100001001000010010110011 W
b100001001000010010110011 y
b10101 x
b100001011010 b
b100001011110 f
bx P
bx l
bx n
bx ~
b100001010110 U
b100001010110 `
b100001010110 d
b100001010110 q
1"
#4400000
0"
#4500000
b0 m
b100001010010 T
b100001010010 p
b100001010010 |
b100001010010 }
b0x _
b0x u
b0x $"
b100001100010 S
b100001100010 a
b100001100010 z
b100001100010 &"
b100001010010 R
b100001010010 e
b100001010010 {
b100001100010 N
b100001100010 j
b100001100010 '"
b100001100010 )"
b0x v
b11111111111111111111111111110100 X
b11111111111111111111111111110100 c
b11111111111111111111111111110100 ""
b11111111111111111111111111110100 ,"
b11 +
b11 4
b11 A
b11 K
b11 +"
b11 F
b10 &
b10 1
b10 B
b10 L
b10 ("
b10 I
b10 /
b10 9
b10 :
b10 J
b10 r
b10 ?
b1111111101011111111100000 *"
b1101111 )
b1101111 2
b1101111 ;
b1101111 C
b1101111 V
b111 -
b111 6
b111 =
b111 Z
b1111111 ,
b1111111 5
b1111111 <
b1111111 Y
b0 \
b0 i
b10101 ]
b10101 h
b11111 ^
b11111 g
b11111111010111111111000001101111 W
b11111111010111111111000001101111 y
b10111 x
b100001100010 b
b100001010010 f
bx Q
bx k
bx s
b100001011110 U
b100001011110 `
b100001011110 d
b100001011110 q
1"
#4600000
0"
#4700000
bx m
b100001010110 N
b100001010110 j
b100001010110 '"
b100001010110 )"
b100001100010 T
b100001100010 p
b100001100010 |
b100001100010 }
bx _
bx u
bx $"
b100001010110 S
b100001010110 a
b100001010110 z
b100001010110 &"
b100001100010 R
b100001100010 e
b100001100010 {
bx v
b10000 X
b10000 c
b10000 ""
b10000 ,"
b1 8
b1 >
b1 @
b1 D
0'
0H
b10 +
b10 4
b10 A
b10 K
b10 +"
b10 F
17
b1 /
b1 9
b1 :
b1 J
b1 r
b1 ?
b1100010100010000 *"
b1100011 )
b1100011 2
b1100011 ;
b1100011 C
b1100011 V
b0 -
b0 6
b0 =
b0 Z
b0 ,
b0 5
b0 <
b0 Y
b10000 \
b10000 i
b110 ]
b110 h
b101 ^
b101 g
b11000101000100001100011 W
b11000101000100001100011 y
b10100 x
b100001010110 b
b100001100010 f
b100001010010 U
b100001010010 `
b100001010010 d
b100001010010 q
1"
#4800000
0"
#4900000
b100001100110 N
b100001100110 j
b100001100110 '"
b100001100110 )"
b100001100110 S
b100001100110 a
b100001100110 z
b100001100110 &"
b100001100010 R
b100001100010 e
b100001100010 {
b0 /
b0 9
b0 :
b0 J
b0 r
b0 ?
b0 X
b0 c
b0 ""
b0 ,"
b0 8
b0 >
b0 @
b0 D
b1 +
b1 4
b1 A
b1 K
b1 +"
b1 F
1.
1E
1*
1G
07
b10000000001000000 *"
b100011 )
b100011 2
b100011 ;
b100011 C
b100011 V
b10 -
b10 6
b10 =
b10 Z
b0 \
b0 i
b1000 ]
b1000 h
b0 ^
b0 g
b100000000010000000100011 W
b100000000010000000100011 y
b0 O
b0 t
b0 !"
b0 #"
b11000 x
b100001100110 b
b100001100010 f
b1001110 P
b1001110 l
b1001110 n
b1001110 ~
b100001100010 U
b100001100010 `
b100001100010 d
b100001100010 q
1"
#5000000
0"
#5100000
b11000 m
b100001100010 _
b100001100010 u
b100001100010 $"
b100001100010 v
bx P
bx l
bx n
bx ~
b100001100010 Q
b100001100010 k
b100001100010 s
1"
