Procesador/procesador_TB.vcd
$date
	Mon Nov 18 19:30:50 2024
$end
$version
	Icarus Verilog
$end
$timescale
	1ps
$end
$scope module procesador_TB $end
$var parameter 32 ! DURATION $end
$var reg 1 " clk_test $end
$var reg 1 # reset_test $end
$var integer 32 $ i [31:0] $end
$scope module procesador_UUT $end
$var wire 1 " clk $end
$var wire 1 # reset $end
$var wire 32 % zero [31:0] $end
$var wire 2 & resultSrc [1:0] $end
$var wire 1 ' regWrite $end
$var wire 1 ( pcSrc $end
$var wire 7 ) op [6:0] $end
$var wire 1 * memWrite $end
$var wire 2 + immSrc [1:0] $end
$var wire 7 , f7 [6:0] $end
$var wire 3 - f3 [2:0] $end
$var wire 1 . aluSrc $end
$var wire 3 / aluControl [2:0] $end
$scope module UC_inst $end
$var wire 1 ( pcSrc $end
$var wire 32 0 zero [31:0] $end
$var wire 2 1 resultSrc [1:0] $end
$var wire 1 ' regWrite $end
$var wire 7 2 op [6:0] $end
$var wire 1 * memWrite $end
$var wire 1 3 jump $end
$var wire 2 4 immSrc [1:0] $end
$var wire 7 5 f7 [6:0] $end
$var wire 3 6 f3 [2:0] $end
$var wire 1 7 branch $end
$var wire 1 . aluSrc $end
$var wire 2 8 aluOp [1:0] $end
$var wire 3 9 aluControl [2:0] $end
$scope module alu_deco_inst $end
$var wire 3 : aluControl [2:0] $end
$var wire 7 ; op [6:0] $end
$var wire 7 < f7 [6:0] $end
$var wire 3 = f3 [2:0] $end
$var wire 2 > aluOp [1:0] $end
$var reg 3 ? aluControlAux [2:0] $end
$upscope $end
$scope module m_deco_inst $end
$var wire 2 @ aluOp [1:0] $end
$var wire 1 . aluSrc $end
$var wire 2 A immSrc [1:0] $end
$var wire 1 * memWrite $end
$var wire 1 ' regWrite $end
$var wire 2 B resSrc [1:0] $end
$var wire 7 C op [6:0] $end
$var wire 1 3 jump $end
$var wire 1 7 branch $end
$var reg 2 D aluOpAux [1:0] $end
$var reg 1 E aluSrcAux $end
$var reg 1 7 branchAux $end
$var reg 2 F immSrcAux [1:0] $end
$var reg 1 3 jumpAux $end
$var reg 1 G memWriteAux $end
$var reg 1 H regWriteAux $end
$var reg 2 I resSrcAux [1:0] $end
$upscope $end
$upscope $end
$scope module datapath_inst $end
$var wire 3 J aluControl [2:0] $end
$var wire 1 . aluSrc $end
$var wire 1 " clk $end
$var wire 2 K immSrc [1:0] $end
$var wire 1 * memWrite $end
$var wire 1 ( pcSrc $end
$var wire 1 ' regWrite $end
$var wire 1 # reset $end
$var wire 2 L resultSrc [1:0] $end
$var wire 1 M we $end
$var wire 32 N zero [31:0] $end
$var wire 32 O wd3 [31:0] $end
$var wire 32 P srcB [31:0] $end
$var wire 32 Q rd2 [31:0] $end
$var wire 32 R rd1 [31:0] $end
$var wire 32 S pcPlusImm [31:0] $end
$var wire 32 T pcPlus4 [31:0] $end
$var wire 32 U pcNext [31:0] $end
$var wire 32 V pc [31:0] $end
$var wire 7 W op [6:0] $end
$var wire 32 X instruction [31:0] $end
$var wire 32 Y immExt [31:0] $end
$var wire 7 Z f7 [6:0] $end
$var wire 3 [ f3 [2:0] $end
$var wire 32 \ dm_Result [31:0] $end
$var wire 5 ] a3 [4:0] $end
$var wire 5 ^ a2 [4:0] $end
$var wire 5 _ a1 [4:0] $end
$var wire 32 ` AluResult [31:0] $end
$scope module ALU_sum_4b_inst $end
$var wire 32 a src [31:0] $end
$var reg 32 b res [31:0] $end
$var reg 32 c res0 [31:0] $end
$upscope $end
$scope module ALU_sum_inst $end
$var wire 32 d srcB [31:0] $end
$var wire 32 e srcA [31:0] $end
$var reg 32 f res [31:0] $end
$var reg 32 g res0 [31:0] $end
$upscope $end
$scope module BR_inst $end
$var wire 5 h a1 [4:0] $end
$var wire 5 i a2 [4:0] $end
$var wire 5 j a3 [4:0] $end
$var wire 1 " clk $end
$var wire 1 M we $end
$var wire 32 k wd3 [31:0] $end
$var reg 32 l rd1 [31:0] $end
$var reg 32 m rd2 [31:0] $end
$upscope $end
$scope module DM_inst $end
$var wire 5 n addressDM [4:0] $end
$var wire 1 " clk $end
$var wire 32 o wd [31:0] $end
$var wire 1 * we $end
$var reg 32 p rd [31:0] $end
$upscope $end
$scope module PC_inst $end
$var wire 1 " clk $end
$var wire 1 # reset $end
$var wire 32 q pcNext [31:0] $end
$var reg 32 r pc [31:0] $end
$upscope $end
$scope module alu_inst $end
$var wire 3 s ALUControl [2:0] $end
$var wire 32 t srcA [31:0] $end
$var wire 32 u srcB [31:0] $end
$var reg 32 v res [31:0] $end
$var reg 32 w res0 [31:0] $end
$var reg 32 x zero [31:0] $end
$upscope $end
$scope module mem_instr_inst $end
$var wire 5 y address [4:0] $end
$var reg 32 z rd [31:0] $end
$upscope $end
$scope module mp_2x1_inst0 $end
$var wire 32 { i1 [31:0] $end
$var wire 32 | i2 [31:0] $end
$var wire 32 } out [31:0] $end
$var wire 1 ( sel $end
$var reg 32 ~ aux [31:0] $end
$upscope $end
$scope module mp_2x1_inst1 $end
$var wire 32 !" i1 [31:0] $end
$var wire 32 "" out [31:0] $end
$var wire 1 . sel $end
$var wire 32 #" i2 [31:0] $end
$var reg 32 $" aux [31:0] $end
$upscope $end
$scope module mp_3x1_inst0 $end
$var wire 32 %" i1 [31:0] $end
$var wire 32 &" i2 [31:0] $end
$var wire 32 '" i3 [31:0] $end
$var wire 32 (" out [31:0] $end
$var wire 2 )" sel [1:0] $end
$var reg 32 *" aux [31:0] $end
$upscope $end
$scope module sign_ext_inst $end
$var wire 25 +" inm [24:0] $end
$var wire 2 ," src [1:0] $end
$var reg 32 -" inmExt [31:0] $end
$upscope $end
$upscope $end
$upscope $end
$upscope $end
$enddefinitions $end
$comment Show the parameter values. $end
$dumpall
b1100100 !
$end
#0
$dumpvars
b11 -"
b0 ,"
b110000000001000 +"
bx *"
b0 )"
bx ("
b100 '"
bx &"
bx %"
b11 $"
b11 #"
b11 ""
bx !"
b100 ~
b100 }
b11 |
b100 {
b1100000000010000010011 z
b0 y
b0 x
bx w
bx v
b11 u
bx t
b0 s
b0 r
b100 q
bx p
bx o
bx n
bx m
bx l
bx k
b1000 j
b11 i
b0 h
b11 g
b11 f
b0 e
b11 d
b100 c
b100 b
b0 a
bx `
b0 _
b11 ^
b1000 ]
bx \
b0 [
b0 Z
b11 Y
b1100000000010000010011 X
b10011 W
b0 V
b100 U
b100 T
b11 S
bx R
bx Q
b11 P
bx O
b0 N
zM
b0 L
b0 K
b0 J
b0 I
1H
0G
b0 F
1E
b10 D
b10011 C
b0 B
b0 A
b10 @
b0 ?
b10 >
b0 =
b0 <
b10011 ;
b0 :
b0 9
b10 8
07
b0 6
b0 5
b0 4
03
b10011 2
b0 1
b0 0
b0 /
1.
b0 -
b0 ,
b0 +
0*
b10011 )
0(
1'
b0 &
b0 %
bx $
1#
0"
$end
#100000
1"
#200000
0"
#300000
1"
#400000
0"
#500000
b1000 U
b1000 q
b1000 }
b1000 ~
b1000 T
b1000 b
b1000 {
b1000 '"
b101 S
b101 f
b101 |
b1 P
b1 u
b1 ""
b1 $"
b1 Y
b1 d
b1 #"
b1 -"
b10000000001001 +"
b1001 ]
b1001 j
b1 ^
b1 i
b100000000010010010011 X
b100000000010010010011 z
b1 y
b1000 c
b101 g
b100 V
b100 a
b100 e
b100 r
1"
0#
#600000
0"
#700000
b1100 U
b1100 q
b1100 }
b1100 ~
b1100 T
b1100 b
b1100 {
b1100 '"
b11000 S
b11000 f
b11000 |
b10000 P
b10000 u
b10000 ""
b10000 $"
b10000 Y
b10000 d
b10000 #"
b10000 -"
b100000000000010010 +"
b10010 ]
b10010 j
b10000 ^
b10000 i
b1000000000000100100010011 X
b1000000000000100100010011 z
b10 y
b1100 c
b11000 g
b1000 V
b1000 a
b1000 e
b1000 r
1"
#800000
0"
#900000
b0 n
b0x O
b0x k
b0x ("
b0x *"
b10000 U
b10000 q
b10000 }
b10000 ~
b0x `
b0x v
b0x %"
b10000 T
b10000 b
b10000 {
b10000 '"
b10101 S
b10101 f
b10101 |
bx P
bx u
bx ""
bx $"
b0x w
b1001 Y
b1001 d
b1001 #"
b1001 -"
0.
0E
b11 /
b11 9
b11 :
b11 J
b11 s
b11 ?
b10010100011000101 +"
b110011 )
b110011 2
b110011 ;
b110011 C
b110011 W
b110 -
b110 6
b110 =
b110 [
b101 ]
b101 j
b1001 ^
b1001 i
b1000 _
b1000 h
b100101000110001010110011 X
b100101000110001010110011 z
b11 y
b10000 c
b10101 g
b1100 V
b1100 a
b1100 e
b1100 r
1"
#1000000
0"
#1100000
b10100 U
b10100 q
b10100 }
b10100 ~
b10100 T
b10100 b
b10100 {
b10100 '"
b11001 S
b11001 f
b11001 |
b10 /
b10 9
b10 :
b10 J
b10 s
b10 ?
b10010100011100110 +"
b111 -
b111 6
b111 =
b111 [
b110 ]
b110 j
b100101000111001100110011 X
b100101000111001100110011 z
b100 y
b10100 c
b11001 g
b10000 V
b10000 a
b10000 e
b10000 r
1"
#1200000
0"
#1300000
bx n
bx O
bx k
bx ("
bx *"
b11000 U
b11000 q
b11000 }
b11000 ~
bx `
bx v
bx %"
b11000 T
b11000 b
b11000 {
b11000 '"
b11101 S
b11101 f
b11101 |
bx w
b0 /
b0 9
b0 :
b0 J
b0 s
b0 ?
b10010100000000111 +"
b0 -
b0 6
b0 =
b0 [
b111 ]
b111 j
b100101000000001110110011 X
b100101000000001110110011 z
b101 y
b11000 c
b11101 g
b10100 V
b10100 a
b10100 e
b10100 r
1"
#1400000
0"
b100000 $
#1500000
b11100 U
b11100 q
b11100 }
b11100 ~
b11100 T
b11100 b
b11100 {
b11100 '"
b10000100001 S
b10000100001 f
b10000100001 |
b10000001001 Y
b10000001001 d
b10000001001 #"
b10000001001 -"
b1 /
b1 9
b1 :
b1 J
b1 s
b1 ?
b100000010010100000011100 +"
b100000 ,
b100000 5
b100000 <
b100000 Z
b11100 ]
b11100 j
b1000000100101000000111000110011 X
b1000000100101000000111000110011 z
b110 y
b11100 c
b10000100001 g
b11000 V
b11000 a
b11000 e
b11000 r
1"
#1600000
0"
#1700000
b100000 U
b100000 q
b100000 }
b100000 ~
b100000 T
b100000 b
b100000 {
b100000 '"
b10000100100 S
b10000100100 f
b10000100100 |
b10000001000 Y
b10000001000 d
b10000001000 #"
b10000001000 -"
b100000010000100100011101 +"
b11101 ]
b11101 j
b1000 ^
b1000 i
b1001 _
b1001 h
b1000000100001001000111010110011 X
b1000000100001001000111010110011 z
b111 y
b100000 c
b10000100100 g
b11100 V
b11100 a
b11100 e
b11100 r
1"
#1800000
0"
#1900000
b100100 U
b100100 q
b100100 }
b100100 ~
b100100 T
b100100 b
b100100 {
b100100 '"
b101001 S
b101001 f
b101001 |
b1001 Y
b1001 d
b1001 #"
b1001 -"
b101 /
b101 9
b101 :
b101 J
b101 s
b101 ?
b10010100001011110 +"
b10 -
b10 6
b10 =
b10 [
b0 ,
b0 5
b0 <
b0 Z
b11110 ]
b11110 j
b1001 ^
b1001 i
b1000 _
b1000 h
b100101000010111100110011 X
b100101000010111100110011 z
b1000 y
b100100 c
b101001 g
b100000 V
b100000 a
b100000 e
b100000 r
1"
#2000000
0"
#2100000
b101000 U
b101000 q
b101000 }
b101000 ~
b101000 T
b101000 b
b101000 {
b101000 '"
b101100 S
b101100 f
b101100 |
b1000 Y
b1000 d
b1000 #"
b1000 -"
b10000100101011111 +"
b11111 ]
b11111 j
b1000 ^
b1000 i
b1001 _
b1001 h
b100001001010111110110011 X
b100001001010111110110011 z
b1001 y
b101000 c
b101100 g
b100100 V
b100100 a
b100100 e
b100100 r
1"
#2200000
0"
#2300000
b101100 U
b101100 q
b101100 }
b101100 ~
b101100 T
b101100 b
b101100 {
b101100 '"
b1000101 S
b1000101 f
b1000101 |
b11101 Y
b11101 d
b11101 #"
b11101 -"
b111010100101011111 +"
b11101 ^
b11101 i
b1110101001010111110110011 X
b1110101001010111110110011 z
b1010 y
b101100 c
b1000101 g
b101000 V
b101000 a
b101000 e
b101000 r
1"
#2400000
0"
#2500000
b110000 U
b110000 q
b110000 }
b110000 ~
b110000 T
b110000 b
b110000 {
b110000 '"
b101101 S
b101101 f
b101101 |
b1 P
b1 u
b1 ""
b1 $"
b1 Y
b1 d
b1 #"
b1 -"
1.
1E
b0 /
b0 9
b0 :
b0 J
b0 s
b0 ?
b10000000000101 +"
b10011 )
b10011 2
b10011 ;
b10011 C
b10011 W
b0 -
b0 6
b0 =
b0 [
b101 ]
b101 j
b1 ^
b1 i
b0 _
b0 h
b100000000001010010011 X
b100000000001010010011 z
b1011 y
b110000 c
b101101 g
b101100 V
b101100 a
b101100 e
b101100 r
1"
#2600000
0"
#2700000
b110100 U
b110100 q
b110100 }
b110100 ~
b110100 T
b110100 b
b110100 {
b110100 '"
b110000 S
b110000 f
b110000 |
b0 P
b0 u
b0 ""
b0 $"
b0 Y
b0 d
b0 #"
b0 -"
b110 +"
b110 ]
b110 j
b0 ^
b0 i
b1100010011 X
b1100010011 z
b1100 y
b110100 c
b110000 g
b110000 V
b110000 a
b110000 e
b110000 r
1"
#2800000
0"
#2900000
b111000 U
b111000 q
b111000 }
b111000 ~
b111000 T
b111000 b
b111000 {
b111000 '"
b1000100 S
b1000100 f
b1000100 |
bx P
bx u
bx ""
bx $"
b10000 Y
b10000 d
b10000 #"
b10000 -"
b1 /
b1 9
b1 :
b1 J
b1 s
b1 ?
b1 8
b1 >
b1 @
b1 D
0'
0H
b10 +
b10 4
b10 A
b10 K
b10 ,"
b10 F
0.
0E
17
b100100010100010000 +"
b1100011 )
b1100011 2
b1100011 ;
b1100011 C
b1100011 W
b10000 ]
b10000 j
b10010 ^
b10010 i
b101 _
b101 h
b1001000101000100001100011 X
b1001000101000100001100011 z
b1101 y
b111000 c
b1000100 g
b110100 V
b110100 a
b110100 e
b110100 r
1"
#3000000
0"
#3100000
b111100 U
b111100 q
b111100 }
b111100 ~
b111100 T
b111100 b
b111100 {
b111100 '"
b100000111100 S
b100000111100 f
b100000111100 |
b100000000100 Y
b100000000100 d
b100000000100 #"
b100000000100 -"
b0 /
b0 9
b0 :
b0 J
b0 s
b0 ?
b10 8
b10 >
b10 @
b10 D
1'
1H
07
b1010010100000101 +"
b110011 )
b110011 2
b110011 ;
b110011 C
b110011 W
b101 ]
b101 j
b101 ^
b101 i
b10100101000001010110011 X
b10100101000001010110011 z
b1110 y
b111100 c
b100000111100 g
b111000 V
b111000 a
b111000 e
b111000 r
1"
#3200000
0"
#3300000
b1000000 U
b1000000 q
b1000000 }
b1000000 ~
b1000000 T
b1000000 b
b1000000 {
b1000000 '"
b111101 S
b111101 f
b111101 |
b1 P
b1 u
b1 ""
b1 $"
b1 Y
b1 d
b1 #"
b1 -"
b0 +
b0 4
b0 A
b0 K
b0 ,"
b0 F
1.
1E
b10011000000110 +"
b10011 )
b10011 2
b10011 ;
b10011 C
b10011 W
b110 ]
b110 j
b1 ^
b1 i
b110 _
b110 h
b100110000001100010011 X
b100110000001100010011 z
b1111 y
b1000000 c
b111101 g
b111100 V
b111100 a
b111100 e
b111100 r
1"
#3400000
0"
#3500000
b0 n
b0x `
b0x v
b0x %"
b1000100 T
b1000100 b
b1000100 {
b1000100 '"
b110100 S
b110100 f
b110100 |
b110100 U
b110100 q
b110100 }
b110100 ~
b11111111111111111111111111110100 P
b11111111111111111111111111110100 u
b11111111111111111111111111110100 ""
b11111111111111111111111111110100 $"
b1000100 O
b1000100 k
b1000100 ("
b1000100 *"
1(
b0x w
b11111111111111111111111111110100 Y
b11111111111111111111111111110100 d
b11111111111111111111111111110100 #"
b11111111111111111111111111110100 -"
b11 +
b11 4
b11 A
b11 K
b11 ,"
b11 F
b10 &
b10 1
b10 B
b10 L
b10 )"
b10 I
13
b10 /
b10 9
b10 :
b10 J
b10 s
b10 ?
b1111111101011111111100000 +"
b1101111 )
b1101111 2
b1101111 ;
b1101111 C
b1101111 W
b111 -
b111 6
b111 =
b111 [
b1111111 ,
b1111111 5
b1111111 <
b1111111 Z
b0 ]
b0 j
b10101 ^
b10101 i
b11111 _
b11111 h
b11111111010111111111000001101111 X
b11111111010111111111000001101111 z
b10000 y
b1000100 c
b110100 g
b1000000 V
b1000000 a
b1000000 e
b1000000 r
1"
#3600000
0"
#3700000
bx n
b111000 O
b111000 k
b111000 ("
b111000 *"
b1000100 U
b1000100 q
b1000100 }
b1000100 ~
bx `
bx v
bx %"
b111000 T
b111000 b
b111000 {
b111000 '"
b1000100 S
b1000100 f
b1000100 |
bx P
bx u
bx ""
bx $"
bx w
b10000 Y
b10000 d
b10000 #"
b10000 -"
b1 8
b1 >
b1 @
b1 D
0'
0H
b10 +
b10 4
b10 A
b10 K
b10 ,"
b10 F
0.
0E
17
b1 /
b1 9
b1 :
b1 J
b1 s
b1 ?
b100100010100010000 +"
b1100011 )
b1100011 2
b1100011 ;
b1100011 C
b1100011 W
b0 -
b0 6
b0 =
b0 [
b0 ,
b0 5
b0 <
b0 Z
b10000 ]
b10000 j
b10010 ^
b10010 i
b101 _
b101 h
b1001000101000100001100011 X
b1001000101000100001100011 z
b1101 y
b111000 c
b1000100 g
b110100 V
b110100 a
b110100 e
b110100 r
1"
#3800000
0"
#3900000
b100001001100 U
b100001001100 q
b100001001100 }
b100001001100 ~
b1001000 T
b1001000 b
b1001000 {
b1001000 '"
b100001001100 S
b100001001100 f
b100001001100 |
bx O
bx k
bx ("
bx *"
b100000001000 Y
b100000001000 d
b100000001000 #"
b100000001000 -"
b0 /
b0 9
b0 :
b0 J
b0 s
b0 ?
b10 8
b10 >
b10 @
b10 D
1'
1H
b0 &
b0 1
b0 B
b0 L
b0 )"
b0 I
07
b1001 +"
b110011 )
b110011 2
b110011 ;
b110011 C
b110011 W
b1001 ]
b1001 j
b0 ^
b0 i
b0 _
b0 h
b10010110011 X
b10010110011 z
b10001 y
b1001000 c
b100001001100 g
b1000100 V
b1000100 a
b1000100 e
b1000100 r
1"
#4000000
0"
#4100000
b100001010110 U
b100001010110 q
b100001010110 }
b100001010110 ~
b100001010000 T
b100001010000 b
b100001010000 {
b100001010000 '"
b100001010110 S
b100001010110 f
b100001010110 |
b1010 P
b1010 u
b1010 ""
b1010 $"
b1010 Y
b1010 d
b1010 #"
b1010 -"
b0 +
b0 4
b0 A
b0 K
b0 ,"
b0 F
1.
1E
b10100000000000110 +"
b10011 )
b10011 2
b10011 ;
b10011 C
b10011 W
b110 ]
b110 j
b1010 ^
b1010 i
b101000000000001100010011 X
b101000000000001100010011 z
b10011 y
b100001010000 c
b100001010110 g
b100001001100 V
b100001001100 a
b100001001100 e
b100001001100 r
1"
#4200000
0"
#4300000
b100001011110 U
b100001011110 q
b100001011110 }
b100001011110 ~
b100001011010 T
b100001011010 b
b100001011010 {
b100001011010 '"
b100001011110 S
b100001011110 f
b100001011110 |
bx P
bx u
bx ""
bx $"
b1000 Y
b1000 d
b1000 #"
b1000 -"
0.
0E
b10000100100001001 +"
b110011 )
b110011 2
b110011 ;
b110011 C
b110011 W
b1001 ]
b1001 j
b1000 ^
b1000 i
b1001 _
b1001 h
b100001001000010010110011 X
b100001001000010010110011 z
b10101 y
b100001011010 c
b100001011110 g
b100001010110 V
b100001010110 a
b100001010110 e
b100001010110 r
1"
#4400000
0"
#4500000
b0 n
b100001010010 U
b100001010010 q
b100001010010 }
b100001010010 ~
b0x `
b0x v
b0x %"
b100001100010 T
b100001100010 b
b100001100010 {
b100001100010 '"
b100001010010 S
b100001010010 f
b100001010010 |
b100001100010 O
b100001100010 k
b100001100010 ("
b100001100010 *"
b0x w
b11111111111111111111111111110100 Y
b11111111111111111111111111110100 d
b11111111111111111111111111110100 #"
b11111111111111111111111111110100 -"
b11 +
b11 4
b11 A
b11 K
b11 ,"
b11 F
b10 &
b10 1
b10 B
b10 L
b10 )"
b10 I
b10 /
b10 9
b10 :
b10 J
b10 s
b10 ?
b1111111101011111111100000 +"
b1101111 )
b1101111 2
b1101111 ;
b1101111 C
b1101111 W
b111 -
b111 6
b111 =
b111 [
b1111111 ,
b1111111 5
b1111111 <
b1111111 Z
b0 ]
b0 j
b10101 ^
b10101 i
b11111 _
b11111 h
b11111111010111111111000001101111 X
b11111111010111111111000001101111 z
b10111 y
b100001100010 c
b100001010010 g
b100001011110 V
b100001011110 a
b100001011110 e
b100001011110 r
1"
#4600000
0"
#4700000
bx n
b100001010110 O
b100001010110 k
b100001010110 ("
b100001010110 *"
b100001100010 U
b100001100010 q
b100001100010 }
b100001100010 ~
bx `
bx v
bx %"
b100001010110 T
b100001010110 b
b100001010110 {
b100001010110 '"
b100001100010 S
b100001100010 f
b100001100010 |
bx w
b10000 Y
b10000 d
b10000 #"
b10000 -"
b1 8
b1 >
b1 @
b1 D
0'
0H
b10 +
b10 4
b10 A
b10 K
b10 ,"
b10 F
17
b1 /
b1 9
b1 :
b1 J
b1 s
b1 ?
b1100010100010000 +"
b1100011 )
b1100011 2
b1100011 ;
b1100011 C
b1100011 W
b0 -
b0 6
b0 =
b0 [
b0 ,
b0 5
b0 <
b0 Z
b10000 ]
b10000 j
b110 ^
b110 i
b101 _
b101 h
b11000101000100001100011 X
b11000101000100001100011 z
b10100 y
b100001010110 c
b100001100010 g
b100001010010 V
b100001010010 a
b100001010010 e
b100001010010 r
1"
#4800000
0"
#4900000
b100001100110 O
b100001100110 k
b100001100110 ("
b100001100110 *"
b100001100110 T
b100001100110 b
b100001100110 {
b100001100110 '"
b100001100010 S
b100001100010 f
b100001100010 |
b0 /
b0 9
b0 :
b0 J
b0 s
b0 ?
b0 P
b0 u
b0 ""
b0 $"
b0 Y
b0 d
b0 #"
b0 -"
b0 8
b0 >
b0 @
b0 D
b1 +
b1 4
b1 A
b1 K
b1 ,"
b1 F
1.
1E
1*
1G
07
b10000000001000000 +"
b100011 )
b100011 2
b100011 ;
b100011 C
b100011 W
b10 -
b10 6
b10 =
b10 [
b0 ]
b0 j
b1000 ^
b1000 i
b0 _
b0 h
b100000000010000000100011 X
b100000000010000000100011 z
b11000 y
b100001100110 c
b100001100010 g
b100001100010 V
b100001100010 a
b100001100010 e
b100001100010 r
1"
