Procesador/procesador_TB.vcd
$date
	Tue Nov 19 13:39:15 2024
$end
$version
	Icarus Verilog
$end
$timescale
	1ps
$end
$scope module procesador_TB $end
$var parameter 32 ! DURATION $end
$var reg 1 " clk_test $end
$var reg 1 # reset_test $end
$var integer 32 $ i [31:0] $end
$scope module procesador_UUT $end
$var wire 1 " clk $end
$var wire 1 # reset $end
$var wire 1 % zero $end
$var wire 2 & resultSrc [1:0] $end
$var wire 1 ' regWrite $end
$var wire 1 ( pcSrc $end
$var wire 7 ) op [6:0] $end
$var wire 1 * memWrite $end
$var wire 2 + immSrc [1:0] $end
$var wire 7 , f7 [6:0] $end
$var wire 3 - f3 [2:0] $end
$var wire 1 . aluSrc $end
$var wire 3 / aluControl [2:0] $end
$scope module UC_inst $end
$var wire 1 ( pcSrc $end
$var wire 1 % zero $end
$var wire 2 0 resultSrc [1:0] $end
$var wire 1 ' regWrite $end
$var wire 7 1 op [6:0] $end
$var wire 1 * memWrite $end
$var wire 1 2 jump $end
$var wire 2 3 immSrc [1:0] $end
$var wire 7 4 f7 [6:0] $end
$var wire 3 5 f3 [2:0] $end
$var wire 1 6 branch $end
$var wire 1 . aluSrc $end
$var wire 2 7 aluOp [1:0] $end
$var wire 3 8 aluControl [2:0] $end
$scope module alu_deco_inst $end
$var wire 3 9 aluControl [2:0] $end
$var wire 7 : op [6:0] $end
$var wire 7 ; f7 [6:0] $end
$var wire 3 < f3 [2:0] $end
$var wire 2 = aluOp [1:0] $end
$var reg 3 > aluControlAux [2:0] $end
$upscope $end
$scope module m_deco_inst $end
$var wire 2 ? aluOp [1:0] $end
$var wire 1 . aluSrc $end
$var wire 2 @ immSrc [1:0] $end
$var wire 1 * memWrite $end
$var wire 1 ' regWrite $end
$var wire 2 A resSrc [1:0] $end
$var wire 7 B op [6:0] $end
$var wire 1 2 jump $end
$var wire 1 6 branch $end
$var reg 2 C aluOpAux [1:0] $end
$var reg 1 D aluSrcAux $end
$var reg 1 6 branchAux $end
$var reg 2 E immSrcAux [1:0] $end
$var reg 1 2 jumpAux $end
$var reg 1 F memWriteAux $end
$var reg 1 G regWriteAux $end
$var reg 2 H resSrcAux [1:0] $end
$upscope $end
$upscope $end
$scope module datapath_inst $end
$var wire 3 I aluControl [2:0] $end
$var wire 1 . aluSrc $end
$var wire 1 " clk $end
$var wire 2 J immSrc [1:0] $end
$var wire 1 * memWrite $end
$var wire 1 ( pcSrc $end
$var wire 1 ' regWrite $end
$var wire 1 # reset $end
$var wire 2 K resultSrc [1:0] $end
$var wire 1 % zero $end
$var wire 32 L wd3 [31:0] $end
$var wire 32 M srcB [31:0] $end
$var wire 32 N rd2 [31:0] $end
$var wire 32 O rd1 [31:0] $end
$var wire 32 P pcPlusImm [31:0] $end
$var wire 32 Q pcPlus4 [31:0] $end
$var wire 32 R pcNext [31:0] $end
$var wire 32 S pc [31:0] $end
$var wire 7 T op [6:0] $end
$var wire 32 U instruction [31:0] $end
$var wire 32 V immExt [31:0] $end
$var wire 7 W f7 [6:0] $end
$var wire 3 X f3 [2:0] $end
$var wire 32 Y dm_Result [31:0] $end
$var wire 5 Z a3 [4:0] $end
$var wire 5 [ a2 [4:0] $end
$var wire 5 \ a1 [4:0] $end
$var wire 32 ] AluResult [31:0] $end
$scope module ALU_sum_4b_inst $end
$var wire 32 ^ src [31:0] $end
$var reg 32 _ res [31:0] $end
$var reg 32 ` res0 [31:0] $end
$upscope $end
$scope module ALU_sum_inst $end
$var wire 32 a res [31:0] $end
$var wire 32 b srcB [31:0] $end
$var wire 32 c srcA [31:0] $end
$var reg 32 d res0 [31:0] $end
$upscope $end
$scope module BR_inst $end
$var wire 5 e a1 [4:0] $end
$var wire 5 f a2 [4:0] $end
$var wire 5 g a3 [4:0] $end
$var wire 1 " clk $end
$var wire 32 h rd1 [31:0] $end
$var wire 32 i rd2 [31:0] $end
$var wire 1 ' regWrite $end
$var wire 32 j wd3 [31:0] $end
$upscope $end
$scope module DM_inst $end
$var wire 5 k addressDM [4:0] $end
$var wire 1 " clk $end
$var wire 32 l rd [31:0] $end
$var wire 32 m wd [31:0] $end
$var wire 1 * we $end
$var reg 32 n rdaux [31:0] $end
$upscope $end
$scope module PC_inst $end
$var wire 1 " clk $end
$var wire 1 # reset $end
$var wire 32 o pcNext [31:0] $end
$var reg 32 p pc [31:0] $end
$upscope $end
$scope module alu_inst $end
$var wire 3 q ALUControl [2:0] $end
$var wire 32 r srcA [31:0] $end
$var wire 1 % zero $end
$var wire 32 s srcB [31:0] $end
$var wire 32 t resta [31:0] $end
$var reg 32 u res [31:0] $end
$var reg 32 v res0 [31:0] $end
$upscope $end
$scope module mem_instr_inst $end
$var wire 5 w address [4:0] $end
$var reg 32 x rd [31:0] $end
$upscope $end
$scope module mp_2x1_inst0 $end
$var wire 32 y i1 [31:0] $end
$var wire 32 z i2 [31:0] $end
$var wire 32 { out [31:0] $end
$var wire 1 ( sel $end
$var reg 32 | aux [31:0] $end
$upscope $end
$scope module mp_2x1_inst1 $end
$var wire 32 } i1 [31:0] $end
$var wire 32 ~ out [31:0] $end
$var wire 1 . sel $end
$var wire 32 !" i2 [31:0] $end
$var reg 32 "" aux [31:0] $end
$upscope $end
$scope module mp_3x1_inst0 $end
$var wire 32 #" i1 [31:0] $end
$var wire 32 $" i2 [31:0] $end
$var wire 32 %" i3 [31:0] $end
$var wire 32 &" out [31:0] $end
$var wire 2 '" sel [1:0] $end
$var reg 32 (" aux [31:0] $end
$upscope $end
$scope module sign_ext_inst $end
$var wire 25 )" inm [24:0] $end
$var wire 2 *" src [1:0] $end
$var reg 32 +" inmExt [31:0] $end
$upscope $end
$upscope $end
$upscope $end
$upscope $end
$scope module procesador_TB $end
$scope module procesador_UUT $end
$scope module datapath_inst $end
$scope module DM_inst $end
$var reg 32 ," \MEM[0] [31:0] $end
$upscope $end
$upscope $end
$upscope $end
$upscope $end
$scope module procesador_TB $end
$scope module procesador_UUT $end
$scope module datapath_inst $end
$scope module DM_inst $end
$var reg 32 -" \MEM[1] [31:0] $end
$upscope $end
$upscope $end
$upscope $end
$upscope $end
$scope module procesador_TB $end
$scope module procesador_UUT $end
$scope module datapath_inst $end
$scope module DM_inst $end
$var reg 32 ." \MEM[2] [31:0] $end
$upscope $end
$upscope $end
$upscope $end
$upscope $end
$scope module procesador_TB $end
$scope module procesador_UUT $end
$scope module datapath_inst $end
$scope module DM_inst $end
$var reg 32 /" \MEM[3] [31:0] $end
$upscope $end
$upscope $end
$upscope $end
$upscope $end
$scope module procesador_TB $end
$scope module procesador_UUT $end
$scope module datapath_inst $end
$scope module DM_inst $end
$var reg 32 0" \MEM[4] [31:0] $end
$upscope $end
$upscope $end
$upscope $end
$upscope $end
$scope module procesador_TB $end
$scope module procesador_UUT $end
$scope module datapath_inst $end
$scope module DM_inst $end
$var reg 32 1" \MEM[5] [31:0] $end
$upscope $end
$upscope $end
$upscope $end
$upscope $end
$scope module procesador_TB $end
$scope module procesador_UUT $end
$scope module datapath_inst $end
$scope module DM_inst $end
$var reg 32 2" \MEM[6] [31:0] $end
$upscope $end
$upscope $end
$upscope $end
$upscope $end
$scope module procesador_TB $end
$scope module procesador_UUT $end
$scope module datapath_inst $end
$scope module DM_inst $end
$var reg 32 3" \MEM[7] [31:0] $end
$upscope $end
$upscope $end
$upscope $end
$upscope $end
$scope module procesador_TB $end
$scope module procesador_UUT $end
$scope module datapath_inst $end
$scope module DM_inst $end
$var reg 32 4" \MEM[8] [31:0] $end
$upscope $end
$upscope $end
$upscope $end
$upscope $end
$scope module procesador_TB $end
$scope module procesador_UUT $end
$scope module datapath_inst $end
$scope module DM_inst $end
$var reg 32 5" \MEM[9] [31:0] $end
$upscope $end
$upscope $end
$upscope $end
$upscope $end
$scope module procesador_TB $end
$scope module procesador_UUT $end
$scope module datapath_inst $end
$scope module DM_inst $end
$var reg 32 6" \MEM[10] [31:0] $end
$upscope $end
$upscope $end
$upscope $end
$upscope $end
$scope module procesador_TB $end
$scope module procesador_UUT $end
$scope module datapath_inst $end
$scope module DM_inst $end
$var reg 32 7" \MEM[11] [31:0] $end
$upscope $end
$upscope $end
$upscope $end
$upscope $end
$scope module procesador_TB $end
$scope module procesador_UUT $end
$scope module datapath_inst $end
$scope module DM_inst $end
$var reg 32 8" \MEM[12] [31:0] $end
$upscope $end
$upscope $end
$upscope $end
$upscope $end
$scope module procesador_TB $end
$scope module procesador_UUT $end
$scope module datapath_inst $end
$scope module DM_inst $end
$var reg 32 9" \MEM[13] [31:0] $end
$upscope $end
$upscope $end
$upscope $end
$upscope $end
$scope module procesador_TB $end
$scope module procesador_UUT $end
$scope module datapath_inst $end
$scope module DM_inst $end
$var reg 32 :" \MEM[14] [31:0] $end
$upscope $end
$upscope $end
$upscope $end
$upscope $end
$scope module procesador_TB $end
$scope module procesador_UUT $end
$scope module datapath_inst $end
$scope module DM_inst $end
$var reg 32 ;" \MEM[15] [31:0] $end
$upscope $end
$upscope $end
$upscope $end
$upscope $end
$scope module procesador_TB $end
$scope module procesador_UUT $end
$scope module datapath_inst $end
$scope module DM_inst $end
$var reg 32 <" \MEM[16] [31:0] $end
$upscope $end
$upscope $end
$upscope $end
$upscope $end
$scope module procesador_TB $end
$scope module procesador_UUT $end
$scope module datapath_inst $end
$scope module DM_inst $end
$var reg 32 =" \MEM[17] [31:0] $end
$upscope $end
$upscope $end
$upscope $end
$upscope $end
$scope module procesador_TB $end
$scope module procesador_UUT $end
$scope module datapath_inst $end
$scope module DM_inst $end
$var reg 32 >" \MEM[18] [31:0] $end
$upscope $end
$upscope $end
$upscope $end
$upscope $end
$scope module procesador_TB $end
$scope module procesador_UUT $end
$scope module datapath_inst $end
$scope module DM_inst $end
$var reg 32 ?" \MEM[19] [31:0] $end
$upscope $end
$upscope $end
$upscope $end
$upscope $end
$scope module procesador_TB $end
$scope module procesador_UUT $end
$scope module datapath_inst $end
$scope module DM_inst $end
$var reg 32 @" \MEM[20] [31:0] $end
$upscope $end
$upscope $end
$upscope $end
$upscope $end
$scope module procesador_TB $end
$scope module procesador_UUT $end
$scope module datapath_inst $end
$scope module DM_inst $end
$var reg 32 A" \MEM[21] [31:0] $end
$upscope $end
$upscope $end
$upscope $end
$upscope $end
$scope module procesador_TB $end
$scope module procesador_UUT $end
$scope module datapath_inst $end
$scope module DM_inst $end
$var reg 32 B" \MEM[22] [31:0] $end
$upscope $end
$upscope $end
$upscope $end
$upscope $end
$scope module procesador_TB $end
$scope module procesador_UUT $end
$scope module datapath_inst $end
$scope module DM_inst $end
$var reg 32 C" \MEM[23] [31:0] $end
$upscope $end
$upscope $end
$upscope $end
$upscope $end
$scope module procesador_TB $end
$scope module procesador_UUT $end
$scope module datapath_inst $end
$scope module DM_inst $end
$var reg 32 D" \MEM[24] [31:0] $end
$upscope $end
$upscope $end
$upscope $end
$upscope $end
$scope module procesador_TB $end
$scope module procesador_UUT $end
$scope module datapath_inst $end
$scope module DM_inst $end
$var reg 32 E" \MEM[25] [31:0] $end
$upscope $end
$upscope $end
$upscope $end
$upscope $end
$scope module procesador_TB $end
$scope module procesador_UUT $end
$scope module datapath_inst $end
$scope module DM_inst $end
$var reg 32 F" \MEM[26] [31:0] $end
$upscope $end
$upscope $end
$upscope $end
$upscope $end
$scope module procesador_TB $end
$scope module procesador_UUT $end
$scope module datapath_inst $end
$scope module DM_inst $end
$var reg 32 G" \MEM[27] [31:0] $end
$upscope $end
$upscope $end
$upscope $end
$upscope $end
$scope module procesador_TB $end
$scope module procesador_UUT $end
$scope module datapath_inst $end
$scope module DM_inst $end
$var reg 32 H" \MEM[28] [31:0] $end
$upscope $end
$upscope $end
$upscope $end
$upscope $end
$scope module procesador_TB $end
$scope module procesador_UUT $end
$scope module datapath_inst $end
$scope module DM_inst $end
$var reg 32 I" \MEM[29] [31:0] $end
$upscope $end
$upscope $end
$upscope $end
$upscope $end
$scope module procesador_TB $end
$scope module procesador_UUT $end
$scope module datapath_inst $end
$scope module DM_inst $end
$var reg 32 J" \MEM[30] [31:0] $end
$upscope $end
$upscope $end
$upscope $end
$upscope $end
$scope module procesador_TB $end
$scope module procesador_UUT $end
$scope module datapath_inst $end
$scope module DM_inst $end
$var reg 32 K" \MEM[31] [31:0] $end
$upscope $end
$upscope $end
$upscope $end
$upscope $end
$scope module procesador_TB $end
$scope module procesador_UUT $end
$scope module datapath_inst $end
$scope module BR_inst $end
$var reg 32 L" \BankReg[0] [31:0] $end
$upscope $end
$upscope $end
$upscope $end
$upscope $end
$scope module procesador_TB $end
$scope module procesador_UUT $end
$scope module datapath_inst $end
$scope module BR_inst $end
$var reg 32 M" \BankReg[1] [31:0] $end
$upscope $end
$upscope $end
$upscope $end
$upscope $end
$scope module procesador_TB $end
$scope module procesador_UUT $end
$scope module datapath_inst $end
$scope module BR_inst $end
$var reg 32 N" \BankReg[2] [31:0] $end
$upscope $end
$upscope $end
$upscope $end
$upscope $end
$scope module procesador_TB $end
$scope module procesador_UUT $end
$scope module datapath_inst $end
$scope module BR_inst $end
$var reg 32 O" \BankReg[3] [31:0] $end
$upscope $end
$upscope $end
$upscope $end
$upscope $end
$scope module procesador_TB $end
$scope module procesador_UUT $end
$scope module datapath_inst $end
$scope module BR_inst $end
$var reg 32 P" \BankReg[4] [31:0] $end
$upscope $end
$upscope $end
$upscope $end
$upscope $end
$scope module procesador_TB $end
$scope module procesador_UUT $end
$scope module datapath_inst $end
$scope module BR_inst $end
$var reg 32 Q" \BankReg[5] [31:0] $end
$upscope $end
$upscope $end
$upscope $end
$upscope $end
$scope module procesador_TB $end
$scope module procesador_UUT $end
$scope module datapath_inst $end
$scope module BR_inst $end
$var reg 32 R" \BankReg[6] [31:0] $end
$upscope $end
$upscope $end
$upscope $end
$upscope $end
$scope module procesador_TB $end
$scope module procesador_UUT $end
$scope module datapath_inst $end
$scope module BR_inst $end
$var reg 32 S" \BankReg[7] [31:0] $end
$upscope $end
$upscope $end
$upscope $end
$upscope $end
$scope module procesador_TB $end
$scope module procesador_UUT $end
$scope module datapath_inst $end
$scope module BR_inst $end
$var reg 32 T" \BankReg[8] [31:0] $end
$upscope $end
$upscope $end
$upscope $end
$upscope $end
$scope module procesador_TB $end
$scope module procesador_UUT $end
$scope module datapath_inst $end
$scope module BR_inst $end
$var reg 32 U" \BankReg[9] [31:0] $end
$upscope $end
$upscope $end
$upscope $end
$upscope $end
$scope module procesador_TB $end
$scope module procesador_UUT $end
$scope module datapath_inst $end
$scope module BR_inst $end
$var reg 32 V" \BankReg[10] [31:0] $end
$upscope $end
$upscope $end
$upscope $end
$upscope $end
$scope module procesador_TB $end
$scope module procesador_UUT $end
$scope module datapath_inst $end
$scope module BR_inst $end
$var reg 32 W" \BankReg[11] [31:0] $end
$upscope $end
$upscope $end
$upscope $end
$upscope $end
$scope module procesador_TB $end
$scope module procesador_UUT $end
$scope module datapath_inst $end
$scope module BR_inst $end
$var reg 32 X" \BankReg[12] [31:0] $end
$upscope $end
$upscope $end
$upscope $end
$upscope $end
$scope module procesador_TB $end
$scope module procesador_UUT $end
$scope module datapath_inst $end
$scope module BR_inst $end
$var reg 32 Y" \BankReg[13] [31:0] $end
$upscope $end
$upscope $end
$upscope $end
$upscope $end
$scope module procesador_TB $end
$scope module procesador_UUT $end
$scope module datapath_inst $end
$scope module BR_inst $end
$var reg 32 Z" \BankReg[14] [31:0] $end
$upscope $end
$upscope $end
$upscope $end
$upscope $end
$scope module procesador_TB $end
$scope module procesador_UUT $end
$scope module datapath_inst $end
$scope module BR_inst $end
$var reg 32 [" \BankReg[15] [31:0] $end
$upscope $end
$upscope $end
$upscope $end
$upscope $end
$scope module procesador_TB $end
$scope module procesador_UUT $end
$scope module datapath_inst $end
$scope module BR_inst $end
$var reg 32 \" \BankReg[16] [31:0] $end
$upscope $end
$upscope $end
$upscope $end
$upscope $end
$scope module procesador_TB $end
$scope module procesador_UUT $end
$scope module datapath_inst $end
$scope module BR_inst $end
$var reg 32 ]" \BankReg[17] [31:0] $end
$upscope $end
$upscope $end
$upscope $end
$upscope $end
$scope module procesador_TB $end
$scope module procesador_UUT $end
$scope module datapath_inst $end
$scope module BR_inst $end
$var reg 32 ^" \BankReg[18] [31:0] $end
$upscope $end
$upscope $end
$upscope $end
$upscope $end
$scope module procesador_TB $end
$scope module procesador_UUT $end
$scope module datapath_inst $end
$scope module BR_inst $end
$var reg 32 _" \BankReg[19] [31:0] $end
$upscope $end
$upscope $end
$upscope $end
$upscope $end
$scope module procesador_TB $end
$scope module procesador_UUT $end
$scope module datapath_inst $end
$scope module BR_inst $end
$var reg 32 `" \BankReg[20] [31:0] $end
$upscope $end
$upscope $end
$upscope $end
$upscope $end
$scope module procesador_TB $end
$scope module procesador_UUT $end
$scope module datapath_inst $end
$scope module BR_inst $end
$var reg 32 a" \BankReg[21] [31:0] $end
$upscope $end
$upscope $end
$upscope $end
$upscope $end
$scope module procesador_TB $end
$scope module procesador_UUT $end
$scope module datapath_inst $end
$scope module BR_inst $end
$var reg 32 b" \BankReg[22] [31:0] $end
$upscope $end
$upscope $end
$upscope $end
$upscope $end
$scope module procesador_TB $end
$scope module procesador_UUT $end
$scope module datapath_inst $end
$scope module BR_inst $end
$var reg 32 c" \BankReg[23] [31:0] $end
$upscope $end
$upscope $end
$upscope $end
$upscope $end
$scope module procesador_TB $end
$scope module procesador_UUT $end
$scope module datapath_inst $end
$scope module BR_inst $end
$var reg 32 d" \BankReg[24] [31:0] $end
$upscope $end
$upscope $end
$upscope $end
$upscope $end
$scope module procesador_TB $end
$scope module procesador_UUT $end
$scope module datapath_inst $end
$scope module BR_inst $end
$var reg 32 e" \BankReg[25] [31:0] $end
$upscope $end
$upscope $end
$upscope $end
$upscope $end
$scope module procesador_TB $end
$scope module procesador_UUT $end
$scope module datapath_inst $end
$scope module BR_inst $end
$var reg 32 f" \BankReg[26] [31:0] $end
$upscope $end
$upscope $end
$upscope $end
$upscope $end
$scope module procesador_TB $end
$scope module procesador_UUT $end
$scope module datapath_inst $end
$scope module BR_inst $end
$var reg 32 g" \BankReg[27] [31:0] $end
$upscope $end
$upscope $end
$upscope $end
$upscope $end
$scope module procesador_TB $end
$scope module procesador_UUT $end
$scope module datapath_inst $end
$scope module BR_inst $end
$var reg 32 h" \BankReg[28] [31:0] $end
$upscope $end
$upscope $end
$upscope $end
$upscope $end
$scope module procesador_TB $end
$scope module procesador_UUT $end
$scope module datapath_inst $end
$scope module BR_inst $end
$var reg 32 i" \BankReg[29] [31:0] $end
$upscope $end
$upscope $end
$upscope $end
$upscope $end
$scope module procesador_TB $end
$scope module procesador_UUT $end
$scope module datapath_inst $end
$scope module BR_inst $end
$var reg 32 j" \BankReg[30] [31:0] $end
$upscope $end
$upscope $end
$upscope $end
$upscope $end
$scope module procesador_TB $end
$scope module procesador_UUT $end
$scope module datapath_inst $end
$scope module BR_inst $end
$var reg 32 k" \BankReg[31] [31:0] $end
$upscope $end
$upscope $end
$upscope $end
$upscope $end
$enddefinitions $end
$comment Show the parameter values. $end
$dumpall
b11111010 !
$end
#0
$dumpvars
b0 k"
b0 j"
b0 i"
b0 h"
b0 g"
b0 f"
b0 e"
b0 d"
b0 c"
b0 b"
b0 a"
b0 `"
b0 _"
b0 ^"
b0 ]"
b0 \"
b0 ["
b0 Z"
b0 Y"
b0 X"
b0 W"
b0 V"
b0 U"
b0 T"
b0 S"
b0 R"
b0 Q"
b0 P"
b0 O"
b0 N"
b0 M"
b0 L"
bx K"
bx J"
bx I"
bx H"
bx G"
bx F"
bx E"
bx D"
bx C"
bx B"
bx A"
bx @"
bx ?"
bx >"
bx ="
bx <"
bx ;"
bx :"
bx 9"
bx 8"
bx 7"
bx 6"
bx 5"
bx 4"
bx 3"
bx 2"
bx 1"
bx 0"
bx /"
bx ."
bx -"
bx ,"
b11 +"
b0 *"
b110000000001000 )"
b11 ("
b0 '"
b11 &"
b100 %"
bx $"
b11 #"
b11 ""
b11 !"
b11 ~
b0 }
b100 |
b100 {
b11 z
b100 y
b1100000000010000010011 x
b0 w
b11 v
b11 u
b11111111111111111111111111111101 t
b11 s
b0 r
b0 q
b0 p
b100 o
bx n
b0 m
bx l
b0 k
b11 j
b0 i
b0 h
b1000 g
b11 f
b0 e
b11 d
b0 c
b11 b
b11 a
b100 `
b100 _
b0 ^
b11 ]
b0 \
b11 [
b1000 Z
bx Y
b0 X
b0 W
b11 V
b1100000000010000010011 U
b10011 T
b0 S
b100 R
b100 Q
b11 P
b0 O
b0 N
b11 M
b11 L
b0 K
b0 J
b0 I
b0 H
1G
0F
b0 E
1D
b10 C
b10011 B
b0 A
b0 @
b10 ?
b0 >
b10 =
b0 <
b0 ;
b10011 :
b0 9
b0 8
b10 7
06
b0 5
b0 4
b0 3
02
b10011 1
b0 0
b0 /
1.
b0 -
b0 ,
b0 +
0*
b10011 )
0(
1'
b0 &
0%
b100000 $
1#
1"
$end
#100000
0"
#200000
b1000 R
b1000 o
b1000 {
b1000 |
b1 L
b1 j
b1 &"
b1 ("
b1 ]
b1 u
b1 #"
b1000 Q
b1000 _
b1000 y
b1000 %"
b1 v
b11111111111111111111111111111111 t
b1 M
b1 s
b1 ~
b1 ""
b1 V
b1 b
b1 !"
b1 +"
b10000000001001 )"
b1001 Z
b1001 g
b1 [
b1 f
b100000000010010010011 U
b100000000010010010011 x
b1 w
b1000 `
b101 P
b101 a
b101 z
b101 d
b11 T"
b100 S
b100 ^
b100 c
b100 p
1"
0#
#300000
0"
#400000
b100 k
b1100 R
b1100 o
b1100 {
b1100 |
b10000 L
b10000 j
b10000 &"
b10000 ("
b10000 ]
b10000 u
b10000 #"
b1100 Q
b1100 _
b1100 y
b1100 %"
b10000 v
b11111111111111111111111111110000 t
b10000 M
b10000 s
b10000 ~
b10000 ""
b10000 V
b10000 b
b10000 !"
b10000 +"
b100000000000010010 )"
b10010 Z
b10010 g
b10000 [
b10000 f
b1000000000000100100010011 U
b1000000000000100100010011 x
b10 w
b1100 `
b11000 P
b11000 a
b11000 z
b11000 d
b1 U"
b1000 S
b1000 ^
b1000 c
b1000 p
1"
#500000
0"
#600000
b0 k
b10000 R
b10000 o
b10000 {
b10000 |
b1 L
b1 j
b1 &"
b1 ("
b1 ]
b1 u
b1 #"
b10000 Q
b10000 _
b10000 y
b10000 %"
b1 M
b1 s
b1 ~
b1 ""
b1001 V
b1001 b
b1001 !"
b1001 +"
0.
0D
b11 /
b11 8
b11 9
b11 I
b11 q
b11 >
b1 v
b10010100011000101 )"
b110011 )
b110011 1
b110011 :
b110011 B
b110011 T
b110 -
b110 5
b110 <
b110 X
b101 Z
b101 g
b1 N
b1 i
b1 m
b1 }
b1001 [
b1001 f
b10 t
b11 O
b11 h
b11 r
b1000 \
b1000 e
b100101000110001010110011 U
b100101000110001010110011 x
b11 w
b10000 `
b10101 P
b10101 a
b10101 z
b10101 d
b10000 ^"
b1100 S
b1100 ^
b1100 c
b1100 p
1"
#700000
0"
#800000
b10100 R
b10100 o
b10100 {
b10100 |
b10100 Q
b10100 _
b10100 y
b10100 %"
b10 /
b10 8
b10 9
b10 I
b10 q
b10 >
b10010100011100110 )"
b111 -
b111 5
b111 <
b111 X
b110 Z
b110 g
b100101000111001100110011 U
b100101000111001100110011 x
b100 w
b10100 `
b11001 P
b11001 a
b11001 z
b11001 d
b1 Q"
b10000 S
b10000 ^
b10000 c
b10000 p
1"
#900000
0"
#1000000
b1 k
b11000 R
b11000 o
b11000 {
b11000 |
b100 L
b100 j
b100 &"
b100 ("
b100 ]
b100 u
b100 #"
b11000 Q
b11000 _
b11000 y
b11000 %"
b100 v
b0 /
b0 8
b0 9
b0 I
b0 q
b0 >
b10010100000000111 )"
b0 -
b0 5
b0 <
b0 X
b111 Z
b111 g
b100101000000001110110011 U
b100101000000001110110011 x
b101 w
b11000 `
b11101 P
b11101 a
b11101 z
b11101 d
b1 R"
b10100 S
b10100 ^
b10100 c
b10100 p
1"
#1100000
0"
#1200000
b0 k
b11100 R
b11100 o
b11100 {
b11100 |
b10 L
b10 j
b10 &"
b10 ("
b10 ]
b10 u
b10 #"
b11100 Q
b11100 _
b11100 y
b11100 %"
b10 v
b10000001001 V
b10000001001 b
b10000001001 !"
b10000001001 +"
b1 /
b1 8
b1 9
b1 I
b1 q
b1 >
b100000010010100000011100 )"
b100000 ,
b100000 4
b100000 ;
b100000 W
b11100 Z
b11100 g
b1000000100101000000111000110011 U
b1000000100101000000111000110011 x
b110 w
b11100 `
b10000100001 P
b10000100001 a
b10000100001 z
b10000100001 d
b100 S"
b11000 S
b11000 ^
b11000 c
b11000 p
1"
#1300000
0"
#1400000
b11111 k
b100000 R
b100000 o
b100000 {
b100000 |
b11111111111111111111111111111110 L
b11111111111111111111111111111110 j
b11111111111111111111111111111110 &"
b11111111111111111111111111111110 ("
b11111111111111111111111111111110 ]
b11111111111111111111111111111110 u
b11111111111111111111111111111110 #"
b100000 Q
b100000 _
b100000 y
b100000 %"
0%
b10000001000 V
b10000001000 b
b10000001000 !"
b10000001000 +"
b11 M
b11 s
b11 ~
b11 ""
b11111111111111111111111111111110 v
b100000010000100100011101 )"
b11101 Z
b11101 g
b11 N
b11 i
b11 m
b11 }
b1000 [
b1000 f
b11111111111111111111111111111110 t
b1 O
b1 h
b1 r
b1001 \
b1001 e
b1000000100001001000111010110011 U
b1000000100001001000111010110011 x
b111 w
b100000 `
b10000100100 P
b10000100100 a
b10000100100 z
b10000100100 d
b10 h"
b11100 S
b11100 ^
b11100 c
b11100 p
1"
#1500000
0"
#1600000
b0 k
b100100 R
b100100 o
b100100 {
b100100 |
b0 L
b0 j
b0 &"
b0 ("
b0 ]
b0 u
b0 #"
b100100 Q
b100100 _
b100100 y
b100100 %"
1%
b1001 V
b1001 b
b1001 !"
b1001 +"
b101 /
b101 8
b101 9
b101 I
b101 q
b101 >
b1 M
b1 s
b1 ~
b1 ""
b0 v
b10010100001011110 )"
b10 -
b10 5
b10 <
b10 X
b0 ,
b0 4
b0 ;
b0 W
b11110 Z
b11110 g
b1 N
b1 i
b1 m
b1 }
b1001 [
b1001 f
b10 t
b11 O
b11 h
b11 r
b1000 \
b1000 e
b100101000010111100110011 U
b100101000010111100110011 x
b1000 w
b100100 `
b101001 P
b101001 a
b101001 z
b101001 d
b11111111111111111111111111111110 i"
b100000 S
b100000 ^
b100000 c
b100000 p
1"
#1700000
0"
#1800000
b101000 R
b101000 o
b101000 {
b101000 |
b1 L
b1 j
b1 &"
b1 ("
b1 ]
b1 u
b1 #"
b101000 Q
b101000 _
b101000 y
b101000 %"
0%
b1 v
b1000 V
b1000 b
b1000 !"
b1000 +"
b11 M
b11 s
b11 ~
b11 ""
b10000100101011111 )"
b11111 Z
b11111 g
b11 N
b11 i
b11 m
b11 }
b1000 [
b1000 f
b11111111111111111111111111111110 t
b1 O
b1 h
b1 r
b1001 \
b1001 e
b100001001010111110110011 U
b100001001010111110110011 x
b1001 w
b101000 `
b101100 P
b101100 a
b101100 z
b101100 d
b0 j"
b100100 S
b100100 ^
b100100 c
b100100 p
1"
#1900000
0"
#2000000
b101100 R
b101100 o
b101100 {
b101100 |
b0 L
b0 j
b0 &"
b0 ("
b0 ]
b0 u
b0 #"
b101100 Q
b101100 _
b101100 y
b101100 %"
1%
b0 v
b11101 V
b11101 b
b11101 !"
b11101 +"
b11 t
b11111111111111111111111111111110 M
b11111111111111111111111111111110 s
b11111111111111111111111111111110 ~
b11111111111111111111111111111110 ""
b111010100101011111 )"
b11111111111111111111111111111110 N
b11111111111111111111111111111110 i
b11111111111111111111111111111110 m
b11111111111111111111111111111110 }
b11101 [
b11101 f
b1110101001010111110110011 U
b1110101001010111110110011 x
b1010 w
b101100 `
b1000101 P
b1000101 a
b1000101 z
b1000101 d
b1 k"
b101000 S
b101000 ^
b101000 c
b101000 p
1"
#2100000
0"
#2200000
b110000 R
b110000 o
b110000 {
b110000 |
b1 L
b1 j
b1 &"
b1 ("
b1 ]
b1 u
b1 #"
b110000 Q
b110000 _
b110000 y
b110000 %"
0%
b1 v
b1 V
b1 b
b1 !"
b1 +"
1.
1D
b0 /
b0 8
b0 9
b0 I
b0 q
b0 >
b1 M
b1 s
b1 ~
b1 ""
b10000000000101 )"
b10011 )
b10011 1
b10011 :
b10011 B
b10011 T
b0 -
b0 5
b0 <
b0 X
b101 Z
b101 g
b0 N
b0 i
b0 m
b0 }
b1 [
b1 f
b11111111111111111111111111111111 t
b0 O
b0 h
b0 r
b0 \
b0 e
b100000000001010010011 U
b100000000001010010011 x
b1011 w
b110000 `
b101101 P
b101101 a
b101101 z
b101101 d
b0 k"
b101100 S
b101100 ^
b101100 c
b101100 p
1"
#2300000
0"
#2400000
b110100 R
b110100 o
b110100 {
b110100 |
b0 L
b0 j
b0 &"
b0 ("
b0 ]
b0 u
b0 #"
b110100 Q
b110100 _
b110100 y
b110100 %"
1%
b0 v
b0 t
b0 M
b0 s
b0 ~
b0 ""
b0 V
b0 b
b0 !"
b0 +"
b110 )"
b110 Z
b110 g
b0 [
b0 f
b1100010011 U
b1100010011 x
b1100 w
b110100 `
b110000 P
b110000 a
b110000 z
b110000 d
b1 Q"
b110000 S
b110000 ^
b110000 c
b110000 p
1"
#2500000
0"
